This file contains any messages produced by compilers while
running configure, to aid debugging if configure makes a mistake.

It was created by Workspace configure 0.0.8, which was
generated by GNU Autoconf 2.69.  Invocation command line was

  $ ./configure --enable-xinerama --enable-xrandr

## --------- ##
## Platform. ##
## --------- ##

hostname = t61p
uname -m = x86_64
uname -r = 3.10-3-amd64
uname -s = Linux
uname -v = #1 SMP Debian 3.10.11-1 (2013-09-10)

/usr/bin/uname -p = unknown
/bin/uname -X     = unknown

/bin/arch              = unknown
/usr/bin/arch -k       = unknown
/usr/convex/getsysinfo = unknown
/usr/bin/hostinfo      = unknown
/bin/machine           = unknown
/usr/bin/oslevel       = unknown
/bin/universe          = unknown

PATH: /usr/local/bin
PATH: /usr/bin
PATH: /bin
PATH: /usr/local/games
PATH: /usr/games
PATH: /usr/sbin/
PATH: /usr/sbin/


## ----------- ##
## Core tests. ##
## ----------- ##

configure:2467: checking for a BSD-compatible install
configure:2535: result: /usr/bin/install -c
configure:2546: checking whether build environment is sane
configure:2601: result: yes
configure:2752: checking for a thread-safe mkdir -p
configure:2791: result: /bin/mkdir -p
configure:2798: checking for gawk
configure:2828: result: no
configure:2798: checking for mawk
configure:2814: found /usr/bin/mawk
configure:2825: result: mawk
configure:2836: checking whether make sets $(MAKE)
configure:2858: result: yes
configure:2887: checking whether make supports nested variables
configure:2904: result: yes
configure:3062: checking for style of include used by make
configure:3090: result: GNU
configure:3161: checking for gcc
configure:3177: found /usr/bin/gcc
configure:3188: result: gcc
configure:3417: checking for C compiler version
configure:3426: gcc --version >&5
gcc (Debian 4.8.1-10) 4.8.1
Copyright (C) 2013 Free Software Foundation, Inc.
This is free software; see the source for copying conditions.  There is NO
warranty; not even for MERCHANTABILITY or FITNESS FOR A PARTICULAR PURPOSE.

configure:3437: $? = 0
configure:3426: gcc -v >&5
Using built-in specs.
COLLECT_GCC=gcc
COLLECT_LTO_WRAPPER=/usr/lib/gcc/x86_64-linux-gnu/4.8/lto-wrapper
Target: x86_64-linux-gnu
Configured with: ../src/configure -v --with-pkgversion='Debian 4.8.1-10' --with-bugurl=file:///usr/share/doc/gcc-4.8/README.Bugs --enable-languages=c,c++,java,go,d,fortran,objc,obj-c++ --prefix=/usr --program-suffix=-4.8 --enable-shared --enable-linker-build-id --libexecdir=/usr/lib --without-included-gettext --enable-threads=posix --with-gxx-include-dir=/usr/include/c++/4.8 --libdir=/usr/lib --enable-nls --with-sysroot=/ --enable-clocale=gnu --enable-libstdcxx-debug --enable-libstdcxx-time=yes --enable-gnu-unique-object --enable-plugin --with-system-zlib --disable-browser-plugin --enable-java-awt=gtk --enable-gtk-cairo --with-java-home=/usr/lib/jvm/java-1.5.0-gcj-4.8-amd64/jre --enable-java-home --with-jvm-root-dir=/usr/lib/jvm/java-1.5.0-gcj-4.8-amd64 --with-jvm-jar-dir=/usr/lib/jvm-exports/java-1.5.0-gcj-4.8-amd64 --with-arch-directory=amd64 --with-ecj-jar=/usr/share/java/eclipse-ecj.jar --enable-objc-gc --enable-multiarch --with-arch-32=i586 --with-abi=m64 --with-multilib-list=m32,m64,mx32 --with-tune=generic --enable-checking=release --build=x86_64-linux-gnu --host=x86_64-linux-gnu --target=x86_64-linux-gnu
Thread model: posix
gcc version 4.8.1 (Debian 4.8.1-10) 
configure:3437: $? = 0
configure:3426: gcc -V >&5
gcc: error: unrecognized command line option '-V'
gcc: fatal error: no input files
compilation terminated.
configure:3437: $? = 4
configure:3426: gcc -qversion >&5
gcc: error: unrecognized command line option '-qversion'
gcc: fatal error: no input files
compilation terminated.
configure:3437: $? = 4
configure:3457: checking whether the C compiler works
configure:3479: gcc    conftest.c  >&5
configure:3483: $? = 0
configure:3531: result: yes
configure:3534: checking for C compiler default output file name
configure:3536: result: a.out
configure:3542: checking for suffix of executables
configure:3549: gcc -o conftest    conftest.c  >&5
configure:3553: $? = 0
configure:3575: result: 
configure:3597: checking whether we are cross compiling
configure:3605: gcc -o conftest    conftest.c  >&5
configure:3609: $? = 0
configure:3616: ./conftest
configure:3620: $? = 0
configure:3635: result: no
configure:3640: checking for suffix of object files
configure:3662: gcc -c   conftest.c >&5
configure:3666: $? = 0
configure:3687: result: o
configure:3691: checking whether we are using the GNU C compiler
configure:3710: gcc -c   conftest.c >&5
configure:3710: $? = 0
configure:3719: result: yes
configure:3728: checking whether gcc accepts -g
configure:3748: gcc -c -g  conftest.c >&5
configure:3748: $? = 0
configure:3789: result: yes
configure:3806: checking for gcc option to accept ISO C89
configure:3869: gcc  -c -g -O2  conftest.c >&5
configure:3869: $? = 0
configure:3882: result: none needed
configure:3907: checking whether gcc understands -c and -o together
configure:3929: gcc -c conftest.c -o conftest2.o
configure:3932: $? = 0
configure:3929: gcc -c conftest.c -o conftest2.o
configure:3932: $? = 0
configure:3944: result: yes
configure:3963: checking dependency style of gcc
configure:4074: result: gcc3
configure:4090: checking for library containing strerror
configure:4121: gcc -o conftest -g -O2   conftest.c  >&5
configure:4121: $? = 0
configure:4138: result: none required
configure:4194: checking for gcc
configure:4221: result: gcc
configure:4450: checking for C compiler version
configure:4459: gcc --version >&5
gcc (Debian 4.8.1-10) 4.8.1
Copyright (C) 2013 Free Software Foundation, Inc.
This is free software; see the source for copying conditions.  There is NO
warranty; not even for MERCHANTABILITY or FITNESS FOR A PARTICULAR PURPOSE.

configure:4470: $? = 0
configure:4459: gcc -v >&5
Using built-in specs.
COLLECT_GCC=gcc
COLLECT_LTO_WRAPPER=/usr/lib/gcc/x86_64-linux-gnu/4.8/lto-wrapper
Target: x86_64-linux-gnu
Configured with: ../src/configure -v --with-pkgversion='Debian 4.8.1-10' --with-bugurl=file:///usr/share/doc/gcc-4.8/README.Bugs --enable-languages=c,c++,java,go,d,fortran,objc,obj-c++ --prefix=/usr --program-suffix=-4.8 --enable-shared --enable-linker-build-id --libexecdir=/usr/lib --without-included-gettext --enable-threads=posix --with-gxx-include-dir=/usr/include/c++/4.8 --libdir=/usr/lib --enable-nls --with-sysroot=/ --enable-clocale=gnu --enable-libstdcxx-debug --enable-libstdcxx-time=yes --enable-gnu-unique-object --enable-plugin --with-system-zlib --disable-browser-plugin --enable-java-awt=gtk --enable-gtk-cairo --with-java-home=/usr/lib/jvm/java-1.5.0-gcj-4.8-amd64/jre --enable-java-home --with-jvm-root-dir=/usr/lib/jvm/java-1.5.0-gcj-4.8-amd64 --with-jvm-jar-dir=/usr/lib/jvm-exports/java-1.5.0-gcj-4.8-amd64 --with-arch-directory=amd64 --with-ecj-jar=/usr/share/java/eclipse-ecj.jar --enable-objc-gc --enable-multiarch --with-arch-32=i586 --with-abi=m64 --with-multilib-list=m32,m64,mx32 --with-tune=generic --enable-checking=release --build=x86_64-linux-gnu --host=x86_64-linux-gnu --target=x86_64-linux-gnu
Thread model: posix
gcc version 4.8.1 (Debian 4.8.1-10) 
configure:4470: $? = 0
configure:4459: gcc -V >&5
gcc: error: unrecognized command line option '-V'
gcc: fatal error: no input files
compilation terminated.
configure:4470: $? = 4
configure:4459: gcc -qversion >&5
gcc: error: unrecognized command line option '-qversion'
gcc: fatal error: no input files
compilation terminated.
configure:4470: $? = 4
configure:4474: checking whether we are using the GNU C compiler
configure:4502: result: yes
configure:4511: checking whether gcc accepts -g
configure:4572: result: yes
configure:4589: checking for gcc option to accept ISO C89
configure:4665: result: none needed
configure:4690: checking whether gcc understands -c and -o together
configure:4727: result: yes
configure:4746: checking dependency style of gcc
configure:4857: result: gcc3
configure:4872: checking whether ln -s works
configure:4876: result: yes
configure:4888: checking how to run the C preprocessor
configure:4919: gcc -E  conftest.c
configure:4919: $? = 0
configure:4933: gcc -E  conftest.c
conftest.c:11:28: fatal error: ac_nonexistent.h: No such file or directory
 #include <ac_nonexistent.h>
                            ^
compilation terminated.
configure:4933: $? = 1
configure: failed program was:
| /* confdefs.h */
| #define PACKAGE_NAME "Workspace"
| #define PACKAGE_TARNAME "Workspace"
| #define PACKAGE_VERSION "0.0.8"
| #define PACKAGE_STRING "Workspace 0.0.8"
| #define PACKAGE_BUGREPORT ""
| #define PACKAGE_URL "http://worpskace.juddy.org/"
| #define PACKAGE "Workspace"
| #define VERSION "0.0.8"
| /* end confdefs.h.  */
| #include <ac_nonexistent.h>
configure:4958: result: gcc -E
configure:4978: gcc -E  conftest.c
configure:4978: $? = 0
configure:4992: gcc -E  conftest.c
conftest.c:11:28: fatal error: ac_nonexistent.h: No such file or directory
 #include <ac_nonexistent.h>
                            ^
compilation terminated.
configure:4992: $? = 1
configure: failed program was:
| /* confdefs.h */
| #define PACKAGE_NAME "Workspace"
| #define PACKAGE_TARNAME "Workspace"
| #define PACKAGE_VERSION "0.0.8"
| #define PACKAGE_STRING "Workspace 0.0.8"
| #define PACKAGE_BUGREPORT ""
| #define PACKAGE_URL "http://worpskace.juddy.org/"
| #define PACKAGE "Workspace"
| #define VERSION "0.0.8"
| /* end confdefs.h.  */
| #include <ac_nonexistent.h>
configure:5021: checking for grep that handles long lines and -e
configure:5079: result: /bin/grep
configure:5084: checking for egrep
configure:5146: result: /bin/grep -E
configure:5152: checking whether gcc needs -traditional
configure:5186: result: no
configure:5222: checking build system type
configure:5236: result: x86_64-unknown-linux-gnu
configure:5256: checking host system type
configure:5269: result: x86_64-unknown-linux-gnu
configure:5310: checking how to print strings
configure:5337: result: printf
configure:5358: checking for a sed that does not truncate output
configure:5422: result: /bin/sed
configure:5440: checking for fgrep
configure:5502: result: /bin/grep -F
configure:5537: checking for ld used by gcc
configure:5604: result: /usr/bin/ld
configure:5611: checking if the linker (/usr/bin/ld) is GNU ld
configure:5626: result: yes
configure:5638: checking for BSD- or MS-compatible name lister (nm)
configure:5687: result: /usr/bin/nm -B
configure:5817: checking the name lister (/usr/bin/nm -B) interface
configure:5824: gcc -c -g -O2  conftest.c >&5
configure:5827: /usr/bin/nm -B "conftest.o"
configure:5830: output
0000000000000000 B some_variable
configure:5837: result: BSD nm
configure:5841: checking the maximum length of command line arguments
configure:5972: result: 1572864
configure:5989: checking whether the shell understands some XSI constructs
configure:5999: result: yes
configure:6003: checking whether the shell understands "+="
configure:6009: result: yes
configure:6044: checking how to convert x86_64-unknown-linux-gnu file names to x86_64-unknown-linux-gnu format
configure:6084: result: func_convert_file_noop
configure:6091: checking how to convert x86_64-unknown-linux-gnu file names to toolchain format
configure:6111: result: func_convert_file_noop
configure:6118: checking for /usr/bin/ld option to reload object files
configure:6125: result: -r
configure:6199: checking for objdump
configure:6215: found /usr/bin/objdump
configure:6226: result: objdump
configure:6258: checking how to recognize dependent libraries
configure:6456: result: pass_all
configure:6541: checking for dlltool
configure:6571: result: no
configure:6601: checking how to associate runtime and link libraries
configure:6628: result: printf %s\n
configure:6688: checking for ar
configure:6704: found /usr/bin/ar
configure:6715: result: ar
configure:6752: checking for archiver @FILE support
configure:6769: gcc -c -g -O2  conftest.c >&5
configure:6769: $? = 0
configure:6772: ar cru libconftest.a @conftest.lst >&5
configure:6775: $? = 0
configure:6780: ar cru libconftest.a @conftest.lst >&5
ar: conftest.o: No such file or directory
configure:6783: $? = 1
configure:6795: result: @
configure:6853: checking for strip
configure:6869: found /usr/bin/strip
configure:6880: result: strip
configure:6952: checking for ranlib
configure:6968: found /usr/bin/ranlib
configure:6979: result: ranlib
configure:7081: checking command to parse /usr/bin/nm -B output from gcc object
configure:7201: gcc -c -g -O2  conftest.c >&5
configure:7204: $? = 0
configure:7208: /usr/bin/nm -B conftest.o \| sed -n -e 's/^.*[ ]\([ABCDGIRSTW][ABCDGIRSTW]*\)[ ][ ]*\([_A-Za-z][_A-Za-z0-9]*\)$/\1 \2 \2/p' | sed '/ __gnu_lto/d' \> conftest.nm
configure:7211: $? = 0
configure:7277: gcc -o conftest -g -O2   conftest.c conftstm.o >&5
configure:7280: $? = 0
configure:7318: result: ok
configure:7355: checking for sysroot
configure:7385: result: no
configure:7462: gcc -c -g -O2  conftest.c >&5
configure:7465: $? = 0
configure:7648: checking for mt
configure:7664: found /bin/mt
configure:7675: result: mt
configure:7698: checking if mt is a manifest tool
configure:7704: mt '-?'
configure:7712: result: no
configure:8349: checking for ANSI C header files
configure:8369: gcc -c -g -O2  conftest.c >&5
configure:8369: $? = 0
configure:8442: gcc -o conftest -g -O2   conftest.c  >&5
configure:8442: $? = 0
configure:8442: ./conftest
configure:8442: $? = 0
configure:8453: result: yes
configure:8466: checking for sys/types.h
configure:8466: gcc -c -g -O2  conftest.c >&5
configure:8466: $? = 0
configure:8466: result: yes
configure:8466: checking for sys/stat.h
configure:8466: gcc -c -g -O2  conftest.c >&5
configure:8466: $? = 0
configure:8466: result: yes
configure:8466: checking for stdlib.h
configure:8466: gcc -c -g -O2  conftest.c >&5
configure:8466: $? = 0
configure:8466: result: yes
configure:8466: checking for string.h
configure:8466: gcc -c -g -O2  conftest.c >&5
configure:8466: $? = 0
configure:8466: result: yes
configure:8466: checking for memory.h
configure:8466: gcc -c -g -O2  conftest.c >&5
configure:8466: $? = 0
configure:8466: result: yes
configure:8466: checking for strings.h
configure:8466: gcc -c -g -O2  conftest.c >&5
configure:8466: $? = 0
configure:8466: result: yes
configure:8466: checking for inttypes.h
configure:8466: gcc -c -g -O2  conftest.c >&5
configure:8466: $? = 0
configure:8466: result: yes
configure:8466: checking for stdint.h
configure:8466: gcc -c -g -O2  conftest.c >&5
configure:8466: $? = 0
configure:8466: result: yes
configure:8466: checking for unistd.h
configure:8466: gcc -c -g -O2  conftest.c >&5
configure:8466: $? = 0
configure:8466: result: yes
configure:8480: checking for dlfcn.h
configure:8480: gcc -c -g -O2  conftest.c >&5
configure:8480: $? = 0
configure:8480: result: yes
configure:8686: checking for objdir
configure:8701: result: .libs
configure:8972: checking if gcc supports -fno-rtti -fno-exceptions
configure:8990: gcc -c -g -O2  -fno-rtti -fno-exceptions conftest.c >&5
cc1: warning: command line option '-fno-rtti' is valid for C++/ObjC++ but not for C [enabled by default]
configure:8994: $? = 0
configure:9007: result: no
configure:9334: checking for gcc option to produce PIC
configure:9341: result: -fPIC -DPIC
configure:9349: checking if gcc PIC flag -fPIC -DPIC works
configure:9367: gcc -c -g -O2  -fPIC -DPIC -DPIC conftest.c >&5
configure:9371: $? = 0
configure:9384: result: yes
configure:9413: checking if gcc static flag -static works
configure:9441: result: yes
configure:9456: checking if gcc supports -c -o file.o
configure:9477: gcc -c -g -O2  -o out/conftest2.o conftest.c >&5
configure:9481: $? = 0
configure:9503: result: yes
configure:9511: checking if gcc supports -c -o file.o
configure:9558: result: yes
configure:9591: checking whether the gcc linker (/usr/bin/ld -m elf_x86_64) supports shared libraries
configure:10748: result: yes
configure:10785: checking whether -lc should be explicitly linked in
configure:10793: gcc -c -g -O2  conftest.c >&5
configure:10796: $? = 0
configure:10811: gcc -shared  -fPIC -DPIC conftest.o  -v -Wl,-soname -Wl,conftest -o conftest 2\>\&1 \| /bin/grep  -lc  \>/dev/null 2\>\&1
configure:10814: $? = 0
configure:10828: result: no
configure:10988: checking dynamic linker characteristics
configure:11488: gcc -o conftest -g -O2   -Wl,-rpath -Wl,/foo conftest.c  >&5
configure:11488: $? = 0
configure:11722: result: GNU/Linux ld.so
configure:11829: checking how to hardcode library paths into programs
configure:11854: result: immediate
configure:12394: checking whether stripping libraries is possible
configure:12399: result: yes
configure:12434: checking if libtool supports shared libraries
configure:12436: result: yes
configure:12439: checking whether to build shared libraries
configure:12460: result: yes
configure:12463: checking whether to build static libraries
configure:12467: result: yes
configure:12525: checking CFLAGS for gcc -Wall
configure:12552: gcc -c -g -O2 -pedantic -Werror  -Wall  conftest.c >&5
configure:12552: $? = 0
configure:12566: result: -Wall
configure:12578: : CFLAGS="$CFLAGS $ax_cv_cflags_gcc_option__Wall"
configure:12581: $? = 0
configure:12588: checking CFLAGS for gcc -Wextra -Wno-sign-compare -Wno-unused-parameter
configure:12615: gcc -c -g -O2 -Wall -pedantic -Werror  -Wextra -Wno-sign-compare -Wno-unused-parameter  conftest.c >&5
configure:12615: $? = 0
configure:12629: result: -Wextra -Wno-sign-compare -Wno-unused-parameter
configure:12641: : CFLAGS="$CFLAGS $ax_cv_cflags_gcc_option__Wextra__Wno_sign_compare__Wno_unused_parameter"
configure:12644: $? = 0
configure:12843: checking CFLAGS for gcc -Wno-deprecated
configure:12870: gcc -c -g -O2 -Wall -Wextra -Wno-sign-compare -Wno-unused-parameter -pedantic -Werror  -Wno-deprecated  conftest.c >&5
configure:12870: $? = 0
configure:12884: result: -Wno-deprecated
configure:12896: : CFLAGS="$CFLAGS $ax_cv_cflags_gcc_option__Wno_deprecated"
configure:12899: $? = 0
configure:12906: checking CFLAGS for gcc -Wno-deprecated-declarations
configure:12933: gcc -c -g -O2 -Wall -Wextra -Wno-sign-compare -Wno-unused-parameter -Wno-deprecated -pedantic -Werror  -Wno-deprecated-declarations  conftest.c >&5
configure:12933: $? = 0
configure:12947: result: -Wno-deprecated-declarations
configure:12959: : CFLAGS="$CFLAGS $ax_cv_cflags_gcc_option__Wno_deprecated_declarations"
configure:12962: $? = 0
configure:13215: checking for working memcmp
configure:13258: gcc -o conftest -g -O2 -Wall -Wextra -Wno-sign-compare -Wno-unused-parameter -Wno-deprecated -Wno-deprecated-declarations  -D_XOPEN_SOURCE=600  conftest.c  >&5
configure:13258: $? = 0
configure:13258: ./conftest
configure:13258: $? = 0
configure:13268: result: yes
configure:13279: checking for vprintf
configure:13279: gcc -o conftest -g -O2 -Wall -Wextra -Wno-sign-compare -Wno-unused-parameter -Wno-deprecated -Wno-deprecated-declarations  -D_XOPEN_SOURCE=600  conftest.c  >&5
conftest.c:46:6: warning: conflicting types for built-in function 'vprintf' [enabled by default]
 char vprintf ();
      ^
configure:13279: $? = 0
configure:13279: result: yes
configure:13285: checking for _doprnt
configure:13285: gcc -o conftest -g -O2 -Wall -Wextra -Wno-sign-compare -Wno-unused-parameter -Wno-deprecated -Wno-deprecated-declarations  -D_XOPEN_SOURCE=600  conftest.c  >&5
/tmp/cclC0Ba2.o: In function `main':
/home/xeto/Code/workspace/conftest.c:58: undefined reference to `_doprnt'
collect2: error: ld returned 1 exit status
configure:13285: $? = 1
configure: failed program was:
| /* confdefs.h */
| #define PACKAGE_NAME "Workspace"
| #define PACKAGE_TARNAME "Workspace"
| #define PACKAGE_VERSION "0.0.8"
| #define PACKAGE_STRING "Workspace 0.0.8"
| #define PACKAGE_BUGREPORT ""
| #define PACKAGE_URL "http://worpskace.juddy.org/"
| #define PACKAGE "Workspace"
| #define VERSION "0.0.8"
| #define STDC_HEADERS 1
| #define HAVE_SYS_TYPES_H 1
| #define HAVE_SYS_STAT_H 1
| #define HAVE_STDLIB_H 1
| #define HAVE_STRING_H 1
| #define HAVE_MEMORY_H 1
| #define HAVE_STRINGS_H 1
| #define HAVE_INTTYPES_H 1
| #define HAVE_STDINT_H 1
| #define HAVE_UNISTD_H 1
| #define HAVE_DLFCN_H 1
| #define LT_OBJDIR ".libs/"
| #define HAVE_VPRINTF 1
| /* end confdefs.h.  */
| /* Define _doprnt to an innocuous variant, in case <limits.h> declares _doprnt.
|    For example, HP-UX 11i <limits.h> declares gettimeofday.  */
| #define _doprnt innocuous__doprnt
| 
| /* System header to define __stub macros and hopefully few prototypes,
|     which can conflict with char _doprnt (); below.
|     Prefer <limits.h> to <assert.h> if __STDC__ is defined, since
|     <limits.h> exists even on freestanding compilers.  */
| 
| #ifdef __STDC__
| # include <limits.h>
| #else
| # include <assert.h>
| #endif
| 
| #undef _doprnt
| 
| /* Override any GCC internal prototype to avoid an error.
|    Use char because int might match the return type of a GCC
|    builtin and then its argument prototype would still apply.  */
| #ifdef __cplusplus
| extern "C"
| #endif
| char _doprnt ();
| /* The GNU C library defines this for functions which it implements
|     to always fail with ENOSYS.  Some functions are actually named
|     something starting with __ and the normal name is an alias.  */
| #if defined __stub__doprnt || defined __stub____doprnt
| choke me
| #endif
| 
| int
| main ()
| {
| return _doprnt ();
|   ;
|   return 0;
| }
configure:13285: result: no
configure:13300: checking for gethostname
configure:13300: gcc -o conftest -g -O2 -Wall -Wextra -Wno-sign-compare -Wno-unused-parameter -Wno-deprecated -Wno-deprecated-declarations  -D_XOPEN_SOURCE=600  conftest.c  >&5
configure:13300: $? = 0
configure:13300: result: yes
configure:13300: checking for select
configure:13300: gcc -o conftest -g -O2 -Wall -Wextra -Wno-sign-compare -Wno-unused-parameter -Wno-deprecated -Wno-deprecated-declarations  -D_XOPEN_SOURCE=600  conftest.c  >&5
configure:13300: $? = 0
configure:13300: result: yes
configure:13300: checking for poll
configure:13300: gcc -o conftest -g -O2 -Wall -Wextra -Wno-sign-compare -Wno-unused-parameter -Wno-deprecated -Wno-deprecated-declarations  -D_XOPEN_SOURCE=600  conftest.c  >&5
configure:13300: $? = 0
configure:13300: result: yes
configure:13300: checking for strcasecmp
configure:13300: gcc -o conftest -g -O2 -Wall -Wextra -Wno-sign-compare -Wno-unused-parameter -Wno-deprecated -Wno-deprecated-declarations  -D_XOPEN_SOURCE=600  conftest.c  >&5
conftest.c:50:6: warning: conflicting types for built-in function 'strcasecmp' [enabled by default]
 char strcasecmp ();
      ^
configure:13300: $? = 0
configure:13300: result: yes
configure:13300: checking for strncasecmp
configure:13300: gcc -o conftest -g -O2 -Wall -Wextra -Wno-sign-compare -Wno-unused-parameter -Wno-deprecated -Wno-deprecated-declarations  -D_XOPEN_SOURCE=600  conftest.c  >&5
conftest.c:51:6: warning: conflicting types for built-in function 'strncasecmp' [enabled by default]
 char strncasecmp ();
      ^
configure:13300: $? = 0
configure:13300: result: yes
configure:13300: checking for setsid
configure:13300: gcc -o conftest -g -O2 -Wall -Wextra -Wno-sign-compare -Wno-unused-parameter -Wno-deprecated -Wno-deprecated-declarations  -D_XOPEN_SOURCE=600  conftest.c  >&5
configure:13300: $? = 0
configure:13300: result: yes
configure:13300: checking for mallinfo
configure:13300: gcc -o conftest -g -O2 -Wall -Wextra -Wno-sign-compare -Wno-unused-parameter -Wno-deprecated -Wno-deprecated-declarations  -D_XOPEN_SOURCE=600  conftest.c  >&5
configure:13300: $? = 0
configure:13300: result: yes
configure:13300: checking for mkstemp
configure:13300: gcc -o conftest -g -O2 -Wall -Wextra -Wno-sign-compare -Wno-unused-parameter -Wno-deprecated -Wno-deprecated-declarations  -D_XOPEN_SOURCE=600  conftest.c  >&5
configure:13300: $? = 0
configure:13300: result: yes
configure:13300: checking for sysconf
configure:13300: gcc -o conftest -g -O2 -Wall -Wextra -Wno-sign-compare -Wno-unused-parameter -Wno-deprecated -Wno-deprecated-declarations  -D_XOPEN_SOURCE=600  conftest.c  >&5
configure:13300: $? = 0
configure:13300: result: yes
configure:13324: checking for library containing strlcat
configure:13356: gcc -o conftest -g -O2 -Wall -Wextra -Wno-sign-compare -Wno-unused-parameter -Wno-deprecated -Wno-deprecated-declarations  -D_XOPEN_SOURCE=600  conftest.c  >&5
/tmp/ccCl5bGz.o: In function `main':
/home/xeto/Code/workspace/conftest.c:44: undefined reference to `strlcat'
collect2: error: ld returned 1 exit status
configure:13356: $? = 1
configure: failed program was:
| /* confdefs.h */
| #define PACKAGE_NAME "Workspace"
| #define PACKAGE_TARNAME "Workspace"
| #define PACKAGE_VERSION "0.0.8"
| #define PACKAGE_STRING "Workspace 0.0.8"
| #define PACKAGE_BUGREPORT ""
| #define PACKAGE_URL "http://worpskace.juddy.org/"
| #define PACKAGE "Workspace"
| #define VERSION "0.0.8"
| #define STDC_HEADERS 1
| #define HAVE_SYS_TYPES_H 1
| #define HAVE_SYS_STAT_H 1
| #define HAVE_STDLIB_H 1
| #define HAVE_STRING_H 1
| #define HAVE_MEMORY_H 1
| #define HAVE_STRINGS_H 1
| #define HAVE_INTTYPES_H 1
| #define HAVE_STDINT_H 1
| #define HAVE_UNISTD_H 1
| #define HAVE_DLFCN_H 1
| #define LT_OBJDIR ".libs/"
| #define HAVE_VPRINTF 1
| #define HAVE_GETHOSTNAME 1
| #define HAVE_SELECT 1
| #define HAVE_POLL 1
| #define HAVE_STRCASECMP 1
| #define HAVE_STRNCASECMP 1
| #define HAVE_SETSID 1
| #define HAVE_MALLINFO 1
| #define HAVE_MKSTEMP 1
| #define HAVE_SYSCONF 1
| /* end confdefs.h.  */
| 
| /* Override any GCC internal prototype to avoid an error.
|    Use char because int might match the return type of a GCC
|    builtin and then its argument prototype would still apply.  */
| #ifdef __cplusplus
| extern "C"
| #endif
| char strlcat ();
| int
| main ()
| {
| return strlcat ();
|   ;
|   return 0;
| }
configure:13356: gcc -o conftest -g -O2 -Wall -Wextra -Wno-sign-compare -Wno-unused-parameter -Wno-deprecated -Wno-deprecated-declarations  -D_XOPEN_SOURCE=600  conftest.c -lbsd
  >&5
/usr/bin/ld: cannot find -lbsd
collect2: error: ld returned 1 exit status
configure:13356: $? = 1
configure: failed program was:
| /* confdefs.h */
| #define PACKAGE_NAME "Workspace"
| #define PACKAGE_TARNAME "Workspace"
| #define PACKAGE_VERSION "0.0.8"
| #define PACKAGE_STRING "Workspace 0.0.8"
| #define PACKAGE_BUGREPORT ""
| #define PACKAGE_URL "http://worpskace.juddy.org/"
| #define PACKAGE "Workspace"
| #define VERSION "0.0.8"
| #define STDC_HEADERS 1
| #define HAVE_SYS_TYPES_H 1
| #define HAVE_SYS_STAT_H 1
| #define HAVE_STDLIB_H 1
| #define HAVE_STRING_H 1
| #define HAVE_MEMORY_H 1
| #define HAVE_STRINGS_H 1
| #define HAVE_INTTYPES_H 1
| #define HAVE_STDINT_H 1
| #define HAVE_UNISTD_H 1
| #define HAVE_DLFCN_H 1
| #define LT_OBJDIR ".libs/"
| #define HAVE_VPRINTF 1
| #define HAVE_GETHOSTNAME 1
| #define HAVE_SELECT 1
| #define HAVE_POLL 1
| #define HAVE_STRCASECMP 1
| #define HAVE_STRNCASECMP 1
| #define HAVE_SETSID 1
| #define HAVE_MALLINFO 1
| #define HAVE_MKSTEMP 1
| #define HAVE_SYSCONF 1
| /* end confdefs.h.  */
| 
| /* Override any GCC internal prototype to avoid an error.
|    Use char because int might match the return type of a GCC
|    builtin and then its argument prototype would still apply.  */
| #ifdef __cplusplus
| extern "C"
| #endif
| char strlcat ();
| int
| main ()
| {
| return strlcat ();
|   ;
|   return 0;
| }
configure:13373: result: no
configure:13383: checking for library containing strlcpy
configure:13415: gcc -o conftest -g -O2 -Wall -Wextra -Wno-sign-compare -Wno-unused-parameter -Wno-deprecated -Wno-deprecated-declarations  -D_XOPEN_SOURCE=600  conftest.c  >&5
/tmp/ccYcGOXJ.o: In function `main':
/home/xeto/Code/workspace/conftest.c:44: undefined reference to `strlcpy'
collect2: error: ld returned 1 exit status
configure:13415: $? = 1
configure: failed program was:
| /* confdefs.h */
| #define PACKAGE_NAME "Workspace"
| #define PACKAGE_TARNAME "Workspace"
| #define PACKAGE_VERSION "0.0.8"
| #define PACKAGE_STRING "Workspace 0.0.8"
| #define PACKAGE_BUGREPORT ""
| #define PACKAGE_URL "http://worpskace.juddy.org/"
| #define PACKAGE "Workspace"
| #define VERSION "0.0.8"
| #define STDC_HEADERS 1
| #define HAVE_SYS_TYPES_H 1
| #define HAVE_SYS_STAT_H 1
| #define HAVE_STDLIB_H 1
| #define HAVE_STRING_H 1
| #define HAVE_MEMORY_H 1
| #define HAVE_STRINGS_H 1
| #define HAVE_INTTYPES_H 1
| #define HAVE_STDINT_H 1
| #define HAVE_UNISTD_H 1
| #define HAVE_DLFCN_H 1
| #define LT_OBJDIR ".libs/"
| #define HAVE_VPRINTF 1
| #define HAVE_GETHOSTNAME 1
| #define HAVE_SELECT 1
| #define HAVE_POLL 1
| #define HAVE_STRCASECMP 1
| #define HAVE_STRNCASECMP 1
| #define HAVE_SETSID 1
| #define HAVE_MALLINFO 1
| #define HAVE_MKSTEMP 1
| #define HAVE_SYSCONF 1
| /* end confdefs.h.  */
| 
| /* Override any GCC internal prototype to avoid an error.
|    Use char because int might match the return type of a GCC
|    builtin and then its argument prototype would still apply.  */
| #ifdef __cplusplus
| extern "C"
| #endif
| char strlcpy ();
| int
| main ()
| {
| return strlcpy ();
|   ;
|   return 0;
| }
configure:13415: gcc -o conftest -g -O2 -Wall -Wextra -Wno-sign-compare -Wno-unused-parameter -Wno-deprecated -Wno-deprecated-declarations  -D_XOPEN_SOURCE=600  conftest.c -lbsd
  >&5
/usr/bin/ld: cannot find -lbsd
collect2: error: ld returned 1 exit status
configure:13415: $? = 1
configure: failed program was:
| /* confdefs.h */
| #define PACKAGE_NAME "Workspace"
| #define PACKAGE_TARNAME "Workspace"
| #define PACKAGE_VERSION "0.0.8"
| #define PACKAGE_STRING "Workspace 0.0.8"
| #define PACKAGE_BUGREPORT ""
| #define PACKAGE_URL "http://worpskace.juddy.org/"
| #define PACKAGE "Workspace"
| #define VERSION "0.0.8"
| #define STDC_HEADERS 1
| #define HAVE_SYS_TYPES_H 1
| #define HAVE_SYS_STAT_H 1
| #define HAVE_STDLIB_H 1
| #define HAVE_STRING_H 1
| #define HAVE_MEMORY_H 1
| #define HAVE_STRINGS_H 1
| #define HAVE_INTTYPES_H 1
| #define HAVE_STDINT_H 1
| #define HAVE_UNISTD_H 1
| #define HAVE_DLFCN_H 1
| #define LT_OBJDIR ".libs/"
| #define HAVE_VPRINTF 1
| #define HAVE_GETHOSTNAME 1
| #define HAVE_SELECT 1
| #define HAVE_POLL 1
| #define HAVE_STRCASECMP 1
| #define HAVE_STRNCASECMP 1
| #define HAVE_SETSID 1
| #define HAVE_MALLINFO 1
| #define HAVE_MKSTEMP 1
| #define HAVE_SYSCONF 1
| /* end confdefs.h.  */
| 
| /* Override any GCC internal prototype to avoid an error.
|    Use char because int might match the return type of a GCC
|    builtin and then its argument prototype would still apply.  */
| #ifdef __cplusplus
| extern "C"
| #endif
| char strlcpy ();
| int
| main ()
| {
| return strlcpy ();
|   ;
|   return 0;
| }
configure:13432: result: no
configure:13524: checking sys/inotify.h usability
configure:13524: gcc -c -g -O2 -Wall -Wextra -Wno-sign-compare -Wno-unused-parameter -Wno-deprecated -Wno-deprecated-declarations  -D_XOPEN_SOURCE=600 conftest.c >&5
configure:13524: $? = 0
configure:13524: result: yes
configure:13524: checking sys/inotify.h presence
configure:13524: gcc -E  -D_XOPEN_SOURCE=600 conftest.c
configure:13524: $? = 0
configure:13524: result: yes
configure:13524: checking for sys/inotify.h
configure:13524: result: yes
configure:13538: checking for sys/wait.h that is POSIX.1 compatible
configure:13564: gcc -c -g -O2 -Wall -Wextra -Wno-sign-compare -Wno-unused-parameter -Wno-deprecated -Wno-deprecated-declarations  -D_XOPEN_SOURCE=600 conftest.c >&5
configure:13564: $? = 0
configure:13571: result: yes
configure:13579: checking whether time.h and sys/time.h may both be included
configure:13599: gcc -c -g -O2 -Wall -Wextra -Wno-sign-compare -Wno-unused-parameter -Wno-deprecated -Wno-deprecated-declarations  -D_XOPEN_SOURCE=600 conftest.c >&5
configure:13599: $? = 0
configure:13606: result: yes
configure:13618: checking fcntl.h usability
configure:13618: gcc -c -g -O2 -Wall -Wextra -Wno-sign-compare -Wno-unused-parameter -Wno-deprecated -Wno-deprecated-declarations  -D_XOPEN_SOURCE=600 conftest.c >&5
configure:13618: $? = 0
configure:13618: result: yes
configure:13618: checking fcntl.h presence
configure:13618: gcc -E  -D_XOPEN_SOURCE=600 conftest.c
configure:13618: $? = 0
configure:13618: result: yes
configure:13618: checking for fcntl.h
configure:13618: result: yes
configure:13618: checking limits.h usability
configure:13618: gcc -c -g -O2 -Wall -Wextra -Wno-sign-compare -Wno-unused-parameter -Wno-deprecated -Wno-deprecated-declarations  -D_XOPEN_SOURCE=600 conftest.c >&5
configure:13618: $? = 0
configure:13618: result: yes
configure:13618: checking limits.h presence
configure:13618: gcc -E  -D_XOPEN_SOURCE=600 conftest.c
configure:13618: $? = 0
configure:13618: result: yes
configure:13618: checking for limits.h
configure:13618: result: yes
configure:13618: checking sys/ioctl.h usability
configure:13618: gcc -c -g -O2 -Wall -Wextra -Wno-sign-compare -Wno-unused-parameter -Wno-deprecated -Wno-deprecated-declarations  -D_XOPEN_SOURCE=600 conftest.c >&5
configure:13618: $? = 0
configure:13618: result: yes
configure:13618: checking sys/ioctl.h presence
configure:13618: gcc -E  -D_XOPEN_SOURCE=600 conftest.c
configure:13618: $? = 0
configure:13618: result: yes
configure:13618: checking for sys/ioctl.h
configure:13618: result: yes
configure:13618: checking libintl.h usability
configure:13618: gcc -c -g -O2 -Wall -Wextra -Wno-sign-compare -Wno-unused-parameter -Wno-deprecated -Wno-deprecated-declarations  -D_XOPEN_SOURCE=600 conftest.c >&5
configure:13618: $? = 0
configure:13618: result: yes
configure:13618: checking libintl.h presence
configure:13618: gcc -E  -D_XOPEN_SOURCE=600 conftest.c
configure:13618: $? = 0
configure:13618: result: yes
configure:13618: checking for libintl.h
configure:13618: result: yes
configure:13618: checking poll.h usability
configure:13618: gcc -c -g -O2 -Wall -Wextra -Wno-sign-compare -Wno-unused-parameter -Wno-deprecated -Wno-deprecated-declarations  -D_XOPEN_SOURCE=600 conftest.c >&5
configure:13618: $? = 0
configure:13618: result: yes
configure:13618: checking poll.h presence
configure:13618: gcc -E  -D_XOPEN_SOURCE=600 conftest.c
configure:13618: $? = 0
configure:13618: result: yes
configure:13618: checking for poll.h
configure:13618: result: yes
configure:13618: checking malloc.h usability
configure:13618: gcc -c -g -O2 -Wall -Wextra -Wno-sign-compare -Wno-unused-parameter -Wno-deprecated -Wno-deprecated-declarations  -D_XOPEN_SOURCE=600 conftest.c >&5
configure:13618: $? = 0
configure:13618: result: yes
configure:13618: checking malloc.h presence
configure:13618: gcc -E  -D_XOPEN_SOURCE=600 conftest.c
configure:13618: $? = 0
configure:13618: result: yes
configure:13618: checking for malloc.h
configure:13618: result: yes
configure:13618: checking ctype.h usability
configure:13618: gcc -c -g -O2 -Wall -Wextra -Wno-sign-compare -Wno-unused-parameter -Wno-deprecated -Wno-deprecated-declarations  -D_XOPEN_SOURCE=600 conftest.c >&5
configure:13618: $? = 0
configure:13618: result: yes
configure:13618: checking ctype.h presence
configure:13618: gcc -E  -D_XOPEN_SOURCE=600 conftest.c
configure:13618: $? = 0
configure:13618: result: yes
configure:13618: checking for ctype.h
configure:13618: result: yes
configure:13618: checking for string.h
configure:13618: result: yes
configure:13618: checking for strings.h
configure:13618: result: yes
configure:13630: checking whether sys_siglist is declared
configure:13630: gcc -c -g -O2 -Wall -Wextra -Wno-sign-compare -Wno-unused-parameter -Wno-deprecated -Wno-deprecated-declarations  -D_XOPEN_SOURCE=600 conftest.c >&5
conftest.c: In function 'main':
conftest.c:60:10: error: 'sys_siglist' undeclared (first use in this function)
   (void) sys_siglist;
          ^
conftest.c:60:10: note: each undeclared identifier is reported only once for each function it appears in
configure:13630: $? = 1
configure: failed program was:
| /* confdefs.h */
| #define PACKAGE_NAME "Workspace"
| #define PACKAGE_TARNAME "Workspace"
| #define PACKAGE_VERSION "0.0.8"
| #define PACKAGE_STRING "Workspace 0.0.8"
| #define PACKAGE_BUGREPORT ""
| #define PACKAGE_URL "http://worpskace.juddy.org/"
| #define PACKAGE "Workspace"
| #define VERSION "0.0.8"
| #define STDC_HEADERS 1
| #define HAVE_SYS_TYPES_H 1
| #define HAVE_SYS_STAT_H 1
| #define HAVE_STDLIB_H 1
| #define HAVE_STRING_H 1
| #define HAVE_MEMORY_H 1
| #define HAVE_STRINGS_H 1
| #define HAVE_INTTYPES_H 1
| #define HAVE_STDINT_H 1
| #define HAVE_UNISTD_H 1
| #define HAVE_DLFCN_H 1
| #define LT_OBJDIR ".libs/"
| #define HAVE_VPRINTF 1
| #define HAVE_GETHOSTNAME 1
| #define HAVE_SELECT 1
| #define HAVE_POLL 1
| #define HAVE_STRCASECMP 1
| #define HAVE_STRNCASECMP 1
| #define HAVE_SETSID 1
| #define HAVE_MALLINFO 1
| #define HAVE_MKSTEMP 1
| #define HAVE_SYSCONF 1
| #define HAVE_SYS_INOTIFY_H 1
| #define HAVE_INOTIFY 1
| #define HAVE_SYS_WAIT_H 1
| #define TIME_WITH_SYS_TIME 1
| #define HAVE_FCNTL_H 1
| #define HAVE_LIMITS_H 1
| #define HAVE_SYS_IOCTL_H 1
| #define HAVE_LIBINTL_H 1
| #define HAVE_POLL_H 1
| #define HAVE_MALLOC_H 1
| #define HAVE_CTYPE_H 1
| #define HAVE_STRING_H 1
| #define HAVE_STRINGS_H 1
| /* end confdefs.h.  */
| #include <signal.h>
| /* NetBSD declares sys_siglist in unistd.h.  */
| #ifdef HAVE_UNISTD_H
| # include <unistd.h>
| #endif
| 
| 
| int
| main ()
| {
| #ifndef sys_siglist
| #ifdef __cplusplus
|   (void) sys_siglist;
| #else
|   (void) sys_siglist;
| #endif
| #endif
| 
|   ;
|   return 0;
| }
configure:13630: result: no
configure:13648: checking for an ANSI C-conforming const
configure:13714: gcc -c -g -O2 -Wall -Wextra -Wno-sign-compare -Wno-unused-parameter -Wno-deprecated -Wno-deprecated-declarations  -D_XOPEN_SOURCE=600 conftest.c >&5
configure:13714: $? = 0
configure:13721: result: yes
configure:13729: checking for inline
configure:13745: gcc -c -g -O2 -Wall -Wextra -Wno-sign-compare -Wno-unused-parameter -Wno-deprecated -Wno-deprecated-declarations  -D_XOPEN_SOURCE=600 conftest.c >&5
configure:13745: $? = 0
configure:13753: result: inline
configure:13805: checking for noreturn
configure:13832: gcc -c -g -O2 -Wall -Wextra -Wno-sign-compare -Wno-unused-parameter -Wno-deprecated -Wno-deprecated-declarations  -D_XOPEN_SOURCE=600 conftest.c >&5
configure:13832: $? = 0
configure:13843: result: stdnoreturn
configure:13862: checking for size_t
configure:13862: gcc -c -g -O2 -Wall -Wextra -Wno-sign-compare -Wno-unused-parameter -Wno-deprecated -Wno-deprecated-declarations  -D_XOPEN_SOURCE=600 conftest.c >&5
configure:13862: $? = 0
configure:13862: gcc -c -g -O2 -Wall -Wextra -Wno-sign-compare -Wno-unused-parameter -Wno-deprecated -Wno-deprecated-declarations  -D_XOPEN_SOURCE=600 conftest.c >&5
conftest.c: In function 'main':
conftest.c:84:21: error: expected expression before ')' token
 if (sizeof ((size_t)))
                     ^
configure:13862: $? = 1
configure: failed program was:
| /* confdefs.h */
| #define PACKAGE_NAME "Workspace"
| #define PACKAGE_TARNAME "Workspace"
| #define PACKAGE_VERSION "0.0.8"
| #define PACKAGE_STRING "Workspace 0.0.8"
| #define PACKAGE_BUGREPORT ""
| #define PACKAGE_URL "http://worpskace.juddy.org/"
| #define PACKAGE "Workspace"
| #define VERSION "0.0.8"
| #define STDC_HEADERS 1
| #define HAVE_SYS_TYPES_H 1
| #define HAVE_SYS_STAT_H 1
| #define HAVE_STDLIB_H 1
| #define HAVE_STRING_H 1
| #define HAVE_MEMORY_H 1
| #define HAVE_STRINGS_H 1
| #define HAVE_INTTYPES_H 1
| #define HAVE_STDINT_H 1
| #define HAVE_UNISTD_H 1
| #define HAVE_DLFCN_H 1
| #define LT_OBJDIR ".libs/"
| #define HAVE_VPRINTF 1
| #define HAVE_GETHOSTNAME 1
| #define HAVE_SELECT 1
| #define HAVE_POLL 1
| #define HAVE_STRCASECMP 1
| #define HAVE_STRNCASECMP 1
| #define HAVE_SETSID 1
| #define HAVE_MALLINFO 1
| #define HAVE_MKSTEMP 1
| #define HAVE_SYSCONF 1
| #define HAVE_SYS_INOTIFY_H 1
| #define HAVE_INOTIFY 1
| #define HAVE_SYS_WAIT_H 1
| #define TIME_WITH_SYS_TIME 1
| #define HAVE_FCNTL_H 1
| #define HAVE_LIMITS_H 1
| #define HAVE_SYS_IOCTL_H 1
| #define HAVE_LIBINTL_H 1
| #define HAVE_POLL_H 1
| #define HAVE_MALLOC_H 1
| #define HAVE_CTYPE_H 1
| #define HAVE_STRING_H 1
| #define HAVE_STRINGS_H 1
| #define HAVE_DECL_SYS_SIGLIST 0
| #define HAVE_STDNORETURN 1
| /* end confdefs.h.  */
| #include <stdio.h>
| #ifdef HAVE_SYS_TYPES_H
| # include <sys/types.h>
| #endif
| #ifdef HAVE_SYS_STAT_H
| # include <sys/stat.h>
| #endif
| #ifdef STDC_HEADERS
| # include <stdlib.h>
| # include <stddef.h>
| #else
| # ifdef HAVE_STDLIB_H
| #  include <stdlib.h>
| # endif
| #endif
| #ifdef HAVE_STRING_H
| # if !defined STDC_HEADERS && defined HAVE_MEMORY_H
| #  include <memory.h>
| # endif
| # include <string.h>
| #endif
| #ifdef HAVE_STRINGS_H
| # include <strings.h>
| #endif
| #ifdef HAVE_INTTYPES_H
| # include <inttypes.h>
| #endif
| #ifdef HAVE_STDINT_H
| # include <stdint.h>
| #endif
| #ifdef HAVE_UNISTD_H
| # include <unistd.h>
| #endif
| int
| main ()
| {
| if (sizeof ((size_t)))
| 	    return 0;
|   ;
|   return 0;
| }
configure:13862: result: yes
configure:13873: checking for pid_t
configure:13873: gcc -c -g -O2 -Wall -Wextra -Wno-sign-compare -Wno-unused-parameter -Wno-deprecated -Wno-deprecated-declarations  -D_XOPEN_SOURCE=600 conftest.c >&5
configure:13873: $? = 0
configure:13873: gcc -c -g -O2 -Wall -Wextra -Wno-sign-compare -Wno-unused-parameter -Wno-deprecated -Wno-deprecated-declarations  -D_XOPEN_SOURCE=600 conftest.c >&5
conftest.c: In function 'main':
conftest.c:84:20: error: expected expression before ')' token
 if (sizeof ((pid_t)))
                    ^
configure:13873: $? = 1
configure: failed program was:
| /* confdefs.h */
| #define PACKAGE_NAME "Workspace"
| #define PACKAGE_TARNAME "Workspace"
| #define PACKAGE_VERSION "0.0.8"
| #define PACKAGE_STRING "Workspace 0.0.8"
| #define PACKAGE_BUGREPORT ""
| #define PACKAGE_URL "http://worpskace.juddy.org/"
| #define PACKAGE "Workspace"
| #define VERSION "0.0.8"
| #define STDC_HEADERS 1
| #define HAVE_SYS_TYPES_H 1
| #define HAVE_SYS_STAT_H 1
| #define HAVE_STDLIB_H 1
| #define HAVE_STRING_H 1
| #define HAVE_MEMORY_H 1
| #define HAVE_STRINGS_H 1
| #define HAVE_INTTYPES_H 1
| #define HAVE_STDINT_H 1
| #define HAVE_UNISTD_H 1
| #define HAVE_DLFCN_H 1
| #define LT_OBJDIR ".libs/"
| #define HAVE_VPRINTF 1
| #define HAVE_GETHOSTNAME 1
| #define HAVE_SELECT 1
| #define HAVE_POLL 1
| #define HAVE_STRCASECMP 1
| #define HAVE_STRNCASECMP 1
| #define HAVE_SETSID 1
| #define HAVE_MALLINFO 1
| #define HAVE_MKSTEMP 1
| #define HAVE_SYSCONF 1
| #define HAVE_SYS_INOTIFY_H 1
| #define HAVE_INOTIFY 1
| #define HAVE_SYS_WAIT_H 1
| #define TIME_WITH_SYS_TIME 1
| #define HAVE_FCNTL_H 1
| #define HAVE_LIMITS_H 1
| #define HAVE_SYS_IOCTL_H 1
| #define HAVE_LIBINTL_H 1
| #define HAVE_POLL_H 1
| #define HAVE_MALLOC_H 1
| #define HAVE_CTYPE_H 1
| #define HAVE_STRING_H 1
| #define HAVE_STRINGS_H 1
| #define HAVE_DECL_SYS_SIGLIST 0
| #define HAVE_STDNORETURN 1
| /* end confdefs.h.  */
| #include <stdio.h>
| #ifdef HAVE_SYS_TYPES_H
| # include <sys/types.h>
| #endif
| #ifdef HAVE_SYS_STAT_H
| # include <sys/stat.h>
| #endif
| #ifdef STDC_HEADERS
| # include <stdlib.h>
| # include <stddef.h>
| #else
| # ifdef HAVE_STDLIB_H
| #  include <stdlib.h>
| # endif
| #endif
| #ifdef HAVE_STRING_H
| # if !defined STDC_HEADERS && defined HAVE_MEMORY_H
| #  include <memory.h>
| # endif
| # include <string.h>
| #endif
| #ifdef HAVE_STRINGS_H
| # include <strings.h>
| #endif
| #ifdef HAVE_INTTYPES_H
| # include <inttypes.h>
| #endif
| #ifdef HAVE_STDINT_H
| # include <stdint.h>
| #endif
| #ifdef HAVE_UNISTD_H
| # include <unistd.h>
| #endif
| int
| main ()
| {
| if (sizeof ((pid_t)))
| 	    return 0;
|   ;
|   return 0;
| }
configure:13873: result: yes
configure:13884: checking return type of signal handlers
configure:13902: gcc -c -g -O2 -Wall -Wextra -Wno-sign-compare -Wno-unused-parameter -Wno-deprecated -Wno-deprecated-declarations  -D_XOPEN_SOURCE=600 conftest.c >&5
conftest.c: In function 'main':
conftest.c:54:1: error: void value not ignored as it ought to be
 return *(signal (0, 0)) (0) == 1;
 ^
configure:13902: $? = 1
configure: failed program was:
| /* confdefs.h */
| #define PACKAGE_NAME "Workspace"
| #define PACKAGE_TARNAME "Workspace"
| #define PACKAGE_VERSION "0.0.8"
| #define PACKAGE_STRING "Workspace 0.0.8"
| #define PACKAGE_BUGREPORT ""
| #define PACKAGE_URL "http://worpskace.juddy.org/"
| #define PACKAGE "Workspace"
| #define VERSION "0.0.8"
| #define STDC_HEADERS 1
| #define HAVE_SYS_TYPES_H 1
| #define HAVE_SYS_STAT_H 1
| #define HAVE_STDLIB_H 1
| #define HAVE_STRING_H 1
| #define HAVE_MEMORY_H 1
| #define HAVE_STRINGS_H 1
| #define HAVE_INTTYPES_H 1
| #define HAVE_STDINT_H 1
| #define HAVE_UNISTD_H 1
| #define HAVE_DLFCN_H 1
| #define LT_OBJDIR ".libs/"
| #define HAVE_VPRINTF 1
| #define HAVE_GETHOSTNAME 1
| #define HAVE_SELECT 1
| #define HAVE_POLL 1
| #define HAVE_STRCASECMP 1
| #define HAVE_STRNCASECMP 1
| #define HAVE_SETSID 1
| #define HAVE_MALLINFO 1
| #define HAVE_MKSTEMP 1
| #define HAVE_SYSCONF 1
| #define HAVE_SYS_INOTIFY_H 1
| #define HAVE_INOTIFY 1
| #define HAVE_SYS_WAIT_H 1
| #define TIME_WITH_SYS_TIME 1
| #define HAVE_FCNTL_H 1
| #define HAVE_LIMITS_H 1
| #define HAVE_SYS_IOCTL_H 1
| #define HAVE_LIBINTL_H 1
| #define HAVE_POLL_H 1
| #define HAVE_MALLOC_H 1
| #define HAVE_CTYPE_H 1
| #define HAVE_STRING_H 1
| #define HAVE_STRINGS_H 1
| #define HAVE_DECL_SYS_SIGLIST 0
| #define HAVE_STDNORETURN 1
| /* end confdefs.h.  */
| #include <sys/types.h>
| #include <signal.h>
| 
| int
| main ()
| {
| return *(signal (0, 0)) (0) == 1;
|   ;
|   return 0;
| }
configure:13909: result: void
configure:13921: checking for pkg-config
configure:13937: found /usr/bin/pkg-config
configure:13948: result: pkg-config
configure:13961: checking for gettext
configure:13961: gcc -o conftest -g -O2 -Wall -Wextra -Wno-sign-compare -Wno-unused-parameter -Wno-deprecated -Wno-deprecated-declarations  -D_XOPEN_SOURCE=600  conftest.c  >&5
conftest.c:72:6: warning: conflicting types for built-in function 'gettext' [enabled by default]
 char gettext ();
      ^
configure:13961: $? = 0
configure:13961: result: yes
configure:14012: checking for xgettext
configure:14042: result: no
configure:14163: checking for X
configure:14271: gcc -E  -D_XOPEN_SOURCE=600 conftest.c
configure:14271: $? = 0
configure:14302: gcc -o conftest -g -O2 -Wall -Wextra -Wno-sign-compare -Wno-unused-parameter -Wno-deprecated -Wno-deprecated-declarations  -D_XOPEN_SOURCE=600  conftest.c -lX11  >&5
configure:14302: $? = 0
configure:14352: result: libraries , headers 
configure:14451: gcc -o conftest -g -O2 -Wall -Wextra -Wno-sign-compare -Wno-unused-parameter -Wno-deprecated -Wno-deprecated-declarations  -D_XOPEN_SOURCE=600  conftest.c   -lX11 >&5
configure:14451: $? = 0
configure:14549: checking for gethostbyname
configure:14549: gcc -o conftest -g -O2 -Wall -Wextra -Wno-sign-compare -Wno-unused-parameter -Wno-deprecated -Wno-deprecated-declarations  -D_XOPEN_SOURCE=600  conftest.c  >&5
configure:14549: $? = 0
configure:14549: result: yes
configure:14646: checking for connect
configure:14646: gcc -o conftest -g -O2 -Wall -Wextra -Wno-sign-compare -Wno-unused-parameter -Wno-deprecated -Wno-deprecated-declarations  -D_XOPEN_SOURCE=600  conftest.c  >&5
configure:14646: $? = 0
configure:14646: result: yes
configure:14695: checking for remove
configure:14695: gcc -o conftest -g -O2 -Wall -Wextra -Wno-sign-compare -Wno-unused-parameter -Wno-deprecated -Wno-deprecated-declarations  -D_XOPEN_SOURCE=600  conftest.c  >&5
configure:14695: $? = 0
configure:14695: result: yes
configure:14744: checking for shmat
configure:14744: gcc -o conftest -g -O2 -Wall -Wextra -Wno-sign-compare -Wno-unused-parameter -Wno-deprecated -Wno-deprecated-declarations  -D_XOPEN_SOURCE=600  conftest.c  >&5
configure:14744: $? = 0
configure:14744: result: yes
configure:14802: checking for IceConnectionNumber in -lICE
configure:14827: gcc -o conftest -g -O2 -Wall -Wextra -Wno-sign-compare -Wno-unused-parameter -Wno-deprecated -Wno-deprecated-declarations  -D_XOPEN_SOURCE=600  conftest.c -lICE   >&5
configure:14827: $? = 0
configure:14836: result: yes
configure:14873: checking for _Xsetlocale in -lX11
configure:14898: gcc -o conftest -g -O2 -Wall -Wextra -Wno-sign-compare -Wno-unused-parameter -Wno-deprecated -Wno-deprecated-declarations  -D_XOPEN_SOURCE=600  conftest.c -lX11  -lX11   >&5
/tmp/ccoI0gCh.o: In function `main':
/home/xeto/Code/workspace/conftest.c:60: undefined reference to `_Xsetlocale'
collect2: error: ld returned 1 exit status
configure:14898: $? = 1
configure: failed program was:
| /* confdefs.h */
| #define PACKAGE_NAME "Workspace"
| #define PACKAGE_TARNAME "Workspace"
| #define PACKAGE_VERSION "0.0.8"
| #define PACKAGE_STRING "Workspace 0.0.8"
| #define PACKAGE_BUGREPORT ""
| #define PACKAGE_URL "http://worpskace.juddy.org/"
| #define PACKAGE "Workspace"
| #define VERSION "0.0.8"
| #define STDC_HEADERS 1
| #define HAVE_SYS_TYPES_H 1
| #define HAVE_SYS_STAT_H 1
| #define HAVE_STDLIB_H 1
| #define HAVE_STRING_H 1
| #define HAVE_MEMORY_H 1
| #define HAVE_STRINGS_H 1
| #define HAVE_INTTYPES_H 1
| #define HAVE_STDINT_H 1
| #define HAVE_UNISTD_H 1
| #define HAVE_DLFCN_H 1
| #define LT_OBJDIR ".libs/"
| #define HAVE_VPRINTF 1
| #define HAVE_GETHOSTNAME 1
| #define HAVE_SELECT 1
| #define HAVE_POLL 1
| #define HAVE_STRCASECMP 1
| #define HAVE_STRNCASECMP 1
| #define HAVE_SETSID 1
| #define HAVE_MALLINFO 1
| #define HAVE_MKSTEMP 1
| #define HAVE_SYSCONF 1
| #define HAVE_SYS_INOTIFY_H 1
| #define HAVE_INOTIFY 1
| #define HAVE_SYS_WAIT_H 1
| #define TIME_WITH_SYS_TIME 1
| #define HAVE_FCNTL_H 1
| #define HAVE_LIMITS_H 1
| #define HAVE_SYS_IOCTL_H 1
| #define HAVE_LIBINTL_H 1
| #define HAVE_POLL_H 1
| #define HAVE_MALLOC_H 1
| #define HAVE_CTYPE_H 1
| #define HAVE_STRING_H 1
| #define HAVE_STRINGS_H 1
| #define HAVE_DECL_SYS_SIGLIST 0
| #define HAVE_STDNORETURN 1
| #define RETSIGTYPE void
| /* end confdefs.h.  */
| 
| /* Override any GCC internal prototype to avoid an error.
|    Use char because int might match the return type of a GCC
|    builtin and then its argument prototype would still apply.  */
| #ifdef __cplusplus
| extern "C"
| #endif
| char _Xsetlocale ();
| int
| main ()
| {
| return _Xsetlocale ();
|   ;
|   return 0;
| }
configure:14907: result: no
configure:14917: checking for XInternAtoms in -lX11
configure:14942: gcc -o conftest -g -O2 -Wall -Wextra -Wno-sign-compare -Wno-unused-parameter -Wno-deprecated -Wno-deprecated-declarations  -D_XOPEN_SOURCE=600  conftest.c -lX11  -lX11   >&5
configure:14942: $? = 0
configure:14951: result: yes
configure:14960: checking for XConvertCase in -lX11
configure:14985: gcc -o conftest -g -O2 -Wall -Wextra -Wno-sign-compare -Wno-unused-parameter -Wno-deprecated -Wno-deprecated-declarations  -D_XOPEN_SOURCE=600  conftest.c -lX11  -lX11   >&5
configure:14985: $? = 0
configure:14994: result: yes
configure:15022: checking for XShapeSelectInput in -lXext
configure:15047: gcc -o conftest -g -O2 -Wall -Wextra -Wno-sign-compare -Wno-unused-parameter -Wno-deprecated -Wno-deprecated-declarations  -D_XOPEN_SOURCE=600  conftest.c -lXext  -lX11   >&5
configure:15047: $? = 0
configure:15056: result: yes
configure:15082: checking for XRRQueryExtension in -lXrandr
configure:15107: gcc -o conftest -g -O2 -Wall -Wextra -Wno-sign-compare -Wno-unused-parameter -Wno-deprecated -Wno-deprecated-declarations  -D_XOPEN_SOURCE=600  conftest.c -lXrandr  -lXext -lX11   >&5
configure:15107: $? = 0
configure:15116: result: yes
configure:15131: checking math.h usability
configure:15131: gcc -c -g -O2 -Wall -Wextra -Wno-sign-compare -Wno-unused-parameter -Wno-deprecated -Wno-deprecated-declarations  -D_XOPEN_SOURCE=600 conftest.c >&5
configure:15131: $? = 0
configure:15131: result: yes
configure:15131: checking math.h presence
configure:15131: gcc -E  -D_XOPEN_SOURCE=600 conftest.c
configure:15131: $? = 0
configure:15131: result: yes
configure:15131: checking for math.h
configure:15131: result: yes
configure:15139: checking for atan
configure:15139: gcc -o conftest -g -O2 -Wall -Wextra -Wno-sign-compare -Wno-unused-parameter -Wno-deprecated -Wno-deprecated-declarations  -D_XOPEN_SOURCE=600  conftest.c  >&5
conftest.c:76:6: warning: conflicting types for built-in function 'atan' [enabled by default]
 char atan ();
      ^
/tmp/ccSZFIxK.o: In function `main':
/home/xeto/Code/workspace/conftest.c:87: undefined reference to `atan'
collect2: error: ld returned 1 exit status
configure:15139: $? = 1
configure: failed program was:
| /* confdefs.h */
| #define PACKAGE_NAME "Workspace"
| #define PACKAGE_TARNAME "Workspace"
| #define PACKAGE_VERSION "0.0.8"
| #define PACKAGE_STRING "Workspace 0.0.8"
| #define PACKAGE_BUGREPORT ""
| #define PACKAGE_URL "http://worpskace.juddy.org/"
| #define PACKAGE "Workspace"
| #define VERSION "0.0.8"
| #define STDC_HEADERS 1
| #define HAVE_SYS_TYPES_H 1
| #define HAVE_SYS_STAT_H 1
| #define HAVE_STDLIB_H 1
| #define HAVE_STRING_H 1
| #define HAVE_MEMORY_H 1
| #define HAVE_STRINGS_H 1
| #define HAVE_INTTYPES_H 1
| #define HAVE_STDINT_H 1
| #define HAVE_UNISTD_H 1
| #define HAVE_DLFCN_H 1
| #define LT_OBJDIR ".libs/"
| #define HAVE_VPRINTF 1
| #define HAVE_GETHOSTNAME 1
| #define HAVE_SELECT 1
| #define HAVE_POLL 1
| #define HAVE_STRCASECMP 1
| #define HAVE_STRNCASECMP 1
| #define HAVE_SETSID 1
| #define HAVE_MALLINFO 1
| #define HAVE_MKSTEMP 1
| #define HAVE_SYSCONF 1
| #define HAVE_SYS_INOTIFY_H 1
| #define HAVE_INOTIFY 1
| #define HAVE_SYS_WAIT_H 1
| #define TIME_WITH_SYS_TIME 1
| #define HAVE_FCNTL_H 1
| #define HAVE_LIMITS_H 1
| #define HAVE_SYS_IOCTL_H 1
| #define HAVE_LIBINTL_H 1
| #define HAVE_POLL_H 1
| #define HAVE_MALLOC_H 1
| #define HAVE_CTYPE_H 1
| #define HAVE_STRING_H 1
| #define HAVE_STRINGS_H 1
| #define HAVE_DECL_SYS_SIGLIST 0
| #define HAVE_STDNORETURN 1
| #define RETSIGTYPE void
| #define HAVE_XINTERNATOMS 1
| #define HAVE_XCONVERTCASE 1
| #define SHAPE 1
| #define HAVE_XRANDR 1
| /* end confdefs.h.  */
| /* Define atan to an innocuous variant, in case <limits.h> declares atan.
|    For example, HP-UX 11i <limits.h> declares gettimeofday.  */
| #define atan innocuous_atan
| 
| /* System header to define __stub macros and hopefully few prototypes,
|     which can conflict with char atan (); below.
|     Prefer <limits.h> to <assert.h> if __STDC__ is defined, since
|     <limits.h> exists even on freestanding compilers.  */
| 
| #ifdef __STDC__
| # include <limits.h>
| #else
| # include <assert.h>
| #endif
| 
| #undef atan
| 
| /* Override any GCC internal prototype to avoid an error.
|    Use char because int might match the return type of a GCC
|    builtin and then its argument prototype would still apply.  */
| #ifdef __cplusplus
| extern "C"
| #endif
| char atan ();
| /* The GNU C library defines this for functions which it implements
|     to always fail with ENOSYS.  Some functions are actually named
|     something starting with __ and the normal name is an alias.  */
| #if defined __stub_atan || defined __stub___atan
| choke me
| #endif
| 
| int
| main ()
| {
| return atan ();
|   ;
|   return 0;
| }
configure:15139: result: no
configure:15143: checking for atan in -lm
configure:15168: gcc -o conftest -g -O2 -Wall -Wextra -Wno-sign-compare -Wno-unused-parameter -Wno-deprecated -Wno-deprecated-declarations  -D_XOPEN_SOURCE=600  conftest.c -lm   >&5
conftest.c:60:6: warning: conflicting types for built-in function 'atan' [enabled by default]
 char atan ();
      ^
configure:15168: $? = 0
configure:15177: result: yes
configure:15190: checking for fontconfig library
configure:15197: result: found
configure:15250: checking for the Xft2 library
configure:15256: result: found
configure:15278: checking whether libXft is at least version 2.1.0
configure:15301: gcc -o conftest -g -O2 -Wall -Wextra -Wno-sign-compare -Wno-unused-parameter -Wno-deprecated -Wno-deprecated-declarations  -D_XOPEN_SOURCE=600 -I/usr/include/freetype2   -I${includedir}   conftest.c  >&5
configure:15301: $? = 0
configure:15311: result: yes
configure:15345: checking for XineramaQueryScreens in -lXinerama
configure:15370: gcc -o conftest -g -O2 -Wall -Wextra -Wno-sign-compare -Wno-unused-parameter -Wno-deprecated -Wno-deprecated-declarations  -D_XOPEN_SOURCE=600  conftest.c -lXinerama  -lXext -lX11   >&5
configure:15370: $? = 0
configure:15379: result: yes
configure:15389: checking for XineramaGetInfo in -lXext
configure:15414: gcc -o conftest -g -O2 -Wall -Wextra -Wno-sign-compare -Wno-unused-parameter -Wno-deprecated -Wno-deprecated-declarations  -D_XOPEN_SOURCE=600  conftest.c -lXext  -lXext -lX11   >&5
/tmp/ccaP9zn3.o: In function `main':
/home/xeto/Code/workspace/conftest.c:64: undefined reference to `XineramaGetInfo'
collect2: error: ld returned 1 exit status
configure:15414: $? = 1
configure: failed program was:
| /* confdefs.h */
| #define PACKAGE_NAME "Workspace"
| #define PACKAGE_TARNAME "Workspace"
| #define PACKAGE_VERSION "0.0.8"
| #define PACKAGE_STRING "Workspace 0.0.8"
| #define PACKAGE_BUGREPORT ""
| #define PACKAGE_URL "http://worpskace.juddy.org/"
| #define PACKAGE "Workspace"
| #define VERSION "0.0.8"
| #define STDC_HEADERS 1
| #define HAVE_SYS_TYPES_H 1
| #define HAVE_SYS_STAT_H 1
| #define HAVE_STDLIB_H 1
| #define HAVE_STRING_H 1
| #define HAVE_MEMORY_H 1
| #define HAVE_STRINGS_H 1
| #define HAVE_INTTYPES_H 1
| #define HAVE_STDINT_H 1
| #define HAVE_UNISTD_H 1
| #define HAVE_DLFCN_H 1
| #define LT_OBJDIR ".libs/"
| #define HAVE_VPRINTF 1
| #define HAVE_GETHOSTNAME 1
| #define HAVE_SELECT 1
| #define HAVE_POLL 1
| #define HAVE_STRCASECMP 1
| #define HAVE_STRNCASECMP 1
| #define HAVE_SETSID 1
| #define HAVE_MALLINFO 1
| #define HAVE_MKSTEMP 1
| #define HAVE_SYSCONF 1
| #define HAVE_SYS_INOTIFY_H 1
| #define HAVE_INOTIFY 1
| #define HAVE_SYS_WAIT_H 1
| #define TIME_WITH_SYS_TIME 1
| #define HAVE_FCNTL_H 1
| #define HAVE_LIMITS_H 1
| #define HAVE_SYS_IOCTL_H 1
| #define HAVE_LIBINTL_H 1
| #define HAVE_POLL_H 1
| #define HAVE_MALLOC_H 1
| #define HAVE_CTYPE_H 1
| #define HAVE_STRING_H 1
| #define HAVE_STRINGS_H 1
| #define HAVE_DECL_SYS_SIGLIST 0
| #define HAVE_STDNORETURN 1
| #define RETSIGTYPE void
| #define HAVE_XINTERNATOMS 1
| #define HAVE_XCONVERTCASE 1
| #define SHAPE 1
| #define HAVE_XRANDR 1
| /* end confdefs.h.  */
| 
| /* Override any GCC internal prototype to avoid an error.
|    Use char because int might match the return type of a GCC
|    builtin and then its argument prototype would still apply.  */
| #ifdef __cplusplus
| extern "C"
| #endif
| char XineramaGetInfo ();
| int
| main ()
| {
| return XineramaGetInfo ();
|   ;
|   return 0;
| }
configure:15423: result: no
configure:15463: checking for XShmAttach in -lXext
configure:15488: gcc -o conftest -g -O2 -Wall -Wextra -Wno-sign-compare -Wno-unused-parameter -Wno-deprecated -Wno-deprecated-declarations  -D_XOPEN_SOURCE=600  conftest.c -lXext  -lXext -lX11   >&5
configure:15488: $? = 0
configure:15497: result: yes
configure:15507: checking for shmget
configure:15507: gcc -o conftest -g -O2 -Wall -Wextra -Wno-sign-compare -Wno-unused-parameter -Wno-deprecated -Wno-deprecated-declarations  -D_XOPEN_SOURCE=600  conftest.c  >&5
configure:15507: $? = 0
configure:15507: result: yes
configure:15549: checking for XpmCreatePixmapFromData in -lXpm
configure:15574: gcc -o conftest -g -O2 -Wall -Wextra -Wno-sign-compare -Wno-unused-parameter -Wno-deprecated -Wno-deprecated-declarations  -D_XOPEN_SOURCE=600  -L${libdir}  conftest.c -lXpm  -lXext -lX11   >&5
configure:15574: $? = 0
configure:15583: result: yes
configure:15598: checking X11/xpm.h usability
configure:15598: gcc -c -g -O2 -Wall -Wextra -Wno-sign-compare -Wno-unused-parameter -Wno-deprecated -Wno-deprecated-declarations  -D_XOPEN_SOURCE=600 -I${includedir}  conftest.c >&5
configure:15598: $? = 0
configure:15598: result: yes
configure:15598: checking X11/xpm.h presence
configure:15598: gcc -E  -D_XOPEN_SOURCE=600 -I${includedir}  conftest.c
configure:15598: $? = 0
configure:15598: result: yes
configure:15598: checking for X11/xpm.h
configure:15598: result: yes
configure:15640: checking for png_get_valid in -lpng
configure:15665: gcc -o conftest -g -O2 -Wall -Wextra -Wno-sign-compare -Wno-unused-parameter -Wno-deprecated -Wno-deprecated-declarations  -D_XOPEN_SOURCE=600  -L${libdir}  conftest.c -lpng -lm  >&5
configure:15665: $? = 0
configure:15674: result: yes
configure:15745: checking png.h usability
configure:15745: gcc -c -g -O2 -Wall -Wextra -Wno-sign-compare -Wno-unused-parameter -Wno-deprecated -Wno-deprecated-declarations  -D_XOPEN_SOURCE=600 -I${includedir}  conftest.c >&5
configure:15745: $? = 0
configure:15745: result: yes
configure:15745: checking png.h presence
configure:15745: gcc -E  -D_XOPEN_SOURCE=600 -I${includedir}  conftest.c
configure:15745: $? = 0
configure:15745: result: yes
configure:15745: checking for png.h
configure:15745: result: yes
configure:15778: checking for jpeg_destroy_compress in -ljpeg
configure:15803: gcc -o conftest -g -O2 -Wall -Wextra -Wno-sign-compare -Wno-unused-parameter -Wno-deprecated -Wno-deprecated-declarations  -D_XOPEN_SOURCE=600  -L${libdir}  conftest.c -ljpeg   >&5
configure:15803: $? = 0
configure:15812: result: yes
configure:15830: checking jpeglib.h usability
configure:15830: gcc -c -g -O2 -Wall -Wextra -Wno-sign-compare -Wno-unused-parameter -Wno-deprecated -Wno-deprecated-declarations  -D_XOPEN_SOURCE=600 -I${includedir}  conftest.c >&5
configure:15830: $? = 0
configure:15830: result: yes
configure:15830: checking jpeglib.h presence
configure:15830: gcc -E  -D_XOPEN_SOURCE=600 -I${includedir}  conftest.c
configure:15830: $? = 0
configure:15830: result: yes
configure:15830: checking for jpeglib.h
configure:15830: result: yes
configure:15863: checking for DGifOpenFileName in -lungif
configure:15888: gcc -o conftest -g -O2 -Wall -Wextra -Wno-sign-compare -Wno-unused-parameter -Wno-deprecated -Wno-deprecated-declarations  -D_XOPEN_SOURCE=600  -L${libdir}  conftest.c -lungif  -lXext -lX11   >&5
configure:15888: $? = 0
configure:15897: result: yes
configure:15967: checking gif_lib.h usability
configure:15967: gcc -c -g -O2 -Wall -Wextra -Wno-sign-compare -Wno-unused-parameter -Wno-deprecated -Wno-deprecated-declarations  -D_XOPEN_SOURCE=600 -I${includedir}  conftest.c >&5
configure:15967: $? = 0
configure:15967: result: yes
configure:15967: checking gif_lib.h presence
configure:15967: gcc -E  -D_XOPEN_SOURCE=600 -I${includedir}  conftest.c
configure:15967: $? = 0
configure:15967: result: yes
configure:15967: checking for gif_lib.h
configure:15967: result: yes
configure:16010: checking for TIFFGetVersion in -ltiff
configure:16035: gcc -o conftest -g -O2 -Wall -Wextra -Wno-sign-compare -Wno-unused-parameter -Wno-deprecated -Wno-deprecated-declarations  -D_XOPEN_SOURCE=600  -L${libdir}  conftest.c -ltiff -lm  >&5
configure:16035: $? = 0
configure:16044: result: yes
configure:16169: checking tiffio.h usability
configure:16169: gcc -c -g -O2 -Wall -Wextra -Wno-sign-compare -Wno-unused-parameter -Wno-deprecated -Wno-deprecated-declarations  -D_XOPEN_SOURCE=600 -I${includedir}  conftest.c >&5
configure:16169: $? = 0
configure:16169: result: yes
configure:16169: checking tiffio.h presence
configure:16169: gcc -E  -D_XOPEN_SOURCE=600 -I${includedir}  conftest.c
configure:16169: $? = 0
configure:16169: result: yes
configure:16169: checking for tiffio.h
configure:16169: result: yes
configure:16219: checking for stdlib.h
configure:16219: result: yes
configure:16298: checking if LD -Wl,--version-script works
configure:16322: gcc -o conftest -g -O2 -Wall -Wextra -Wno-sign-compare -Wno-unused-parameter -Wno-deprecated -Wno-deprecated-declarations  -D_XOPEN_SOURCE=600  -Wl,--version-script=conftest.map conftest.c  >&5
configure:16322: $? = 0
configure:16331: result: yes
configure:16455: checking that generated files are newer than configure
configure:16461: result: done
configure:16520: creating ./config.status

## ---------------------- ##
## Running config.status. ##
## ---------------------- ##

This file was extended by Workspace config.status 0.0.8, which was
generated by GNU Autoconf 2.69.  Invocation command line was

  CONFIG_FILES    = 
  CONFIG_HEADERS  = 
  CONFIG_LINKS    = 
  CONFIG_COMMANDS = 
  $ ./config.status 

on t61p

config.status:1208: creating Makefile
config.status:1208: creating po/Makefile
config.status:1208: creating util/Makefile
config.status:1208: creating util/po/Makefile
config.status:1208: creating test/Makefile
config.status:1208: creating WINGs/Makefile
config.status:1208: creating WINGs/WINGs/Makefile
config.status:1208: creating WINGs/Documentation/Makefile
config.status:1208: creating WINGs/Examples/Makefile
config.status:1208: creating WINGs/Resources/Makefile
config.status:1208: creating WINGs/Tests/Makefile
config.status:1208: creating WINGs/Extras/Makefile
config.status:1208: creating WINGs/po/Makefile
config.status:1208: creating wmlib/Makefile
config.status:1208: creating wrlib/Makefile
config.status:1208: creating wrlib/tests/Makefile
config.status:1208: creating src/Makefile
config.status:1208: creating src/wconfig.h
config.status:1208: creating doc/Makefile
config.status:1208: creating doc/sk/Makefile
config.status:1208: creating doc/cs/Makefile
config.status:1208: creating doc/ru/Makefile
config.status:1208: creating Workspace/Makefile
config.status:1208: creating Workspace/Backgrounds/Makefile
config.status:1208: creating Workspace/Defaults/Makefile
config.status:1208: creating Workspace/IconSets/Makefile
config.status:1208: creating Workspace/Icons/Makefile
config.status:1208: creating Workspace/Pixmaps/Makefile
config.status:1208: creating Workspace/Styles/Makefile
config.status:1208: creating Workspace/Themes/Makefile
config.status:1208: creating WPrefs.app/Makefile
config.status:1208: creating WPrefs.app/xpm/Makefile
config.status:1208: creating WPrefs.app/po/Makefile
config.status:1208: creating config.h
config.status:1437: executing depfiles commands
config.status:1437: executing libtool commands

## ---------------- ##
## Cache variables. ##
## ---------------- ##

ac_cv_build=x86_64-unknown-linux-gnu
ac_cv_c_compiler_gnu=yes
ac_cv_c_const=yes
ac_cv_c_inline=inline
ac_cv_env_CC_set=
ac_cv_env_CC_value=
ac_cv_env_CFLAGS_set=
ac_cv_env_CFLAGS_value=
ac_cv_env_CPPFLAGS_set=
ac_cv_env_CPPFLAGS_value=
ac_cv_env_CPP_set=
ac_cv_env_CPP_value=
ac_cv_env_LDFLAGS_set=
ac_cv_env_LDFLAGS_value=
ac_cv_env_LIBS_set=
ac_cv_env_LIBS_value=
ac_cv_env_XMKMF_set=
ac_cv_env_XMKMF_value=
ac_cv_env_build_alias_set=
ac_cv_env_build_alias_value=
ac_cv_env_host_alias_set=
ac_cv_env_host_alias_value=
ac_cv_env_target_alias_set=
ac_cv_env_target_alias_value=
ac_cv_func__doprnt=no
ac_cv_func_atan=no
ac_cv_func_connect=yes
ac_cv_func_gethostbyname=yes
ac_cv_func_gethostname=yes
ac_cv_func_gettext=yes
ac_cv_func_mallinfo=yes
ac_cv_func_memcmp_working=yes
ac_cv_func_mkstemp=yes
ac_cv_func_poll=yes
ac_cv_func_remove=yes
ac_cv_func_select=yes
ac_cv_func_setsid=yes
ac_cv_func_shmat=yes
ac_cv_func_shmget=yes
ac_cv_func_strcasecmp=yes
ac_cv_func_strncasecmp=yes
ac_cv_func_sysconf=yes
ac_cv_func_vprintf=yes
ac_cv_have_decl_sys_siglist=no
ac_cv_have_x='have_x=yes	ac_x_includes='\'''\''	ac_x_libraries='\'''\'''
ac_cv_header_X11_xpm_h=yes
ac_cv_header_ctype_h=yes
ac_cv_header_dlfcn_h=yes
ac_cv_header_fcntl_h=yes
ac_cv_header_gif_lib_h=yes
ac_cv_header_inttypes_h=yes
ac_cv_header_jpeglib_h=yes
ac_cv_header_libintl_h=yes
ac_cv_header_limits_h=yes
ac_cv_header_malloc_h=yes
ac_cv_header_math_h=yes
ac_cv_header_memory_h=yes
ac_cv_header_png_h=yes
ac_cv_header_poll_h=yes
ac_cv_header_stdc=yes
ac_cv_header_stdint_h=yes
ac_cv_header_stdlib_h=yes
ac_cv_header_string_h=yes
ac_cv_header_strings_h=yes
ac_cv_header_sys_inotify_h=yes
ac_cv_header_sys_ioctl_h=yes
ac_cv_header_sys_stat_h=yes
ac_cv_header_sys_types_h=yes
ac_cv_header_sys_wait_h=yes
ac_cv_header_tiffio_h=yes
ac_cv_header_time=yes
ac_cv_header_unistd_h=yes
ac_cv_host=x86_64-unknown-linux-gnu
ac_cv_lib_ICE_IceConnectionNumber=yes
ac_cv_lib_X11_XConvertCase=yes
ac_cv_lib_X11_XInternAtoms=yes
ac_cv_lib_X11__Xsetlocale=no
ac_cv_lib_Xext_XShapeSelectInput=yes
ac_cv_lib_Xext_XShmAttach=yes
ac_cv_lib_Xext_XineramaGetInfo=no
ac_cv_lib_Xinerama_XineramaQueryScreens=yes
ac_cv_lib_Xpm_XpmCreatePixmapFromData=yes
ac_cv_lib_Xrandr_XRRQueryExtension=yes
ac_cv_lib_jpeg_jpeg_destroy_compress=yes
ac_cv_lib_m_atan=yes
ac_cv_lib_png_png_get_valid=yes
ac_cv_lib_ungif_DGifOpenFileName=yes
ac_cv_lib_xft_version_ok=yes
ac_cv_objext=o
ac_cv_path_EGREP='/bin/grep -E'
ac_cv_path_FGREP='/bin/grep -F'
ac_cv_path_GREP=/bin/grep
ac_cv_path_SED=/bin/sed
ac_cv_path_install='/usr/bin/install -c'
ac_cv_path_mkdir=/bin/mkdir
ac_cv_prog_AWK=mawk
ac_cv_prog_CPP='gcc -E'
ac_cv_prog_PKGCONFIG=pkg-config
ac_cv_prog_ac_ct_AR=ar
ac_cv_prog_ac_ct_CC=gcc
ac_cv_prog_ac_ct_MANIFEST_TOOL=mt
ac_cv_prog_ac_ct_OBJDUMP=objdump
ac_cv_prog_ac_ct_RANLIB=ranlib
ac_cv_prog_ac_ct_STRIP=strip
ac_cv_prog_cc_c89=
ac_cv_prog_cc_g=yes
ac_cv_prog_gcc_traditional=no
ac_cv_prog_make_make_set=yes
ac_cv_search_strerror='none required'
ac_cv_search_strlcat=no
ac_cv_search_strlcpy=no
ac_cv_type_pid_t=yes
ac_cv_type_signal=void
ac_cv_type_size_t=yes
am_cv_CC_dependencies_compiler_type=gcc3
am_cv_make_support_nested_variables=yes
am_cv_prog_cc_c_o=yes
ax_cv_cflags_gcc_option__Wall=-Wall
ax_cv_cflags_gcc_option__Wextra__Wno_sign_compare__Wno_unused_parameter='-Wextra -Wno-sign-compare -Wno-unused-parameter'
ax_cv_cflags_gcc_option__Wno_deprecated=-Wno-deprecated
ax_cv_cflags_gcc_option__Wno_deprecated_declarations=-Wno-deprecated-declarations
lt_cv_ar_at_file=@
lt_cv_archive_cmds_need_lc=no
lt_cv_deplibs_check_method=pass_all
lt_cv_file_magic_cmd='$MAGIC_CMD'
lt_cv_file_magic_test_file=
lt_cv_ld_reload_flag=-r
lt_cv_nm_interface='BSD nm'
lt_cv_objdir=.libs
lt_cv_path_LD=/usr/bin/ld
lt_cv_path_NM='/usr/bin/nm -B'
lt_cv_path_mainfest_tool=no
lt_cv_prog_compiler_c_o=yes
lt_cv_prog_compiler_pic='-fPIC -DPIC'
lt_cv_prog_compiler_pic_works=yes
lt_cv_prog_compiler_rtti_exceptions=no
lt_cv_prog_compiler_static_works=yes
lt_cv_prog_gnu_ld=yes
lt_cv_sharedlib_from_linklib_cmd='printf %s\n'
lt_cv_shlibpath_overrides_runpath=no
lt_cv_sys_global_symbol_pipe='sed -n -e '\''s/^.*[	 ]\([ABCDGIRSTW][ABCDGIRSTW]*\)[	 ][	 ]*\([_A-Za-z][_A-Za-z0-9]*\)$/\1 \2 \2/p'\'' | sed '\''/ __gnu_lto/d'\'''
lt_cv_sys_global_symbol_to_c_name_address='sed -n -e '\''s/^: \([^ ]*\)[ ]*$/  {\"\1\", (void *) 0},/p'\'' -e '\''s/^[ABCDGIRSTW]* \([^ ]*\) \([^ ]*\)$/  {"\2", (void *) \&\2},/p'\'''
lt_cv_sys_global_symbol_to_c_name_address_lib_prefix='sed -n -e '\''s/^: \([^ ]*\)[ ]*$/  {\"\1\", (void *) 0},/p'\'' -e '\''s/^[ABCDGIRSTW]* \([^ ]*\) \(lib[^ ]*\)$/  {"\2", (void *) \&\2},/p'\'' -e '\''s/^[ABCDGIRSTW]* \([^ ]*\) \([^ ]*\)$/  {"lib\2", (void *) \&\2},/p'\'''
lt_cv_sys_global_symbol_to_cdecl='sed -n -e '\''s/^T .* \(.*\)$/extern int \1();/p'\'' -e '\''s/^[ABCDGIRSTW]* .* \(.*\)$/extern char \1;/p'\'''
lt_cv_sys_max_cmd_len=1572864
lt_cv_to_host_file_cmd=func_convert_file_noop
lt_cv_to_tool_file_cmd=func_convert_file_noop
wm_cv_c_noreturn=stdnoreturn

## ----------------- ##
## Output variables. ##
## ----------------- ##

ACLOCAL='${SHELL} /home/xeto/Code/workspace/missing aclocal-1.14'
AMDEPBACKSLASH='\'
AMDEP_FALSE='#'
AMDEP_TRUE=''
AMTAR='$${TAR-tar}'
AM_BACKSLASH='\'
AM_DEFAULT_V='$(AM_DEFAULT_VERBOSITY)'
AM_DEFAULT_VERBOSITY='1'
AM_V='$(V)'
AR='ar'
AUTOCONF='${SHELL} /home/xeto/Code/workspace/missing autoconf'
AUTOHEADER='${SHELL} /home/xeto/Code/workspace/missing autoheader'
AUTOMAKE='${SHELL} /home/xeto/Code/workspace/missing automake-1.14'
AWK='mawk'
CC='gcc'
CCDEPMODE='depmode=gcc3'
CFLAGS='-g -O2 -Wall -Wextra -Wno-sign-compare -Wno-unused-parameter -Wno-deprecated -Wno-deprecated-declarations'
CPP='gcc -E'
CPPFLAGS=' -D_XOPEN_SOURCE=600'
CYGPATH_W='echo'
DEFS='-DHAVE_CONFIG_H'
DEPDIR='.deps'
DLLTOOL='false'
DSYMUTIL=''
DUMPBIN=''
ECHO_C=''
ECHO_N='-n'
ECHO_T=''
EGREP='/bin/grep -E'
EXEEXT=''
FCLIBS='-lfontconfig  '
FGREP='/bin/grep -F'
GFXLIBS='-ltiff  -lXpm -lpng -ljpeg -lungif'
GREP='/bin/grep'
HAVE_LD_VERSION_SCRIPT_FALSE='#'
HAVE_LD_VERSION_SCRIPT_TRUE=''
HEADER_SEARCH_PATH='-I${includedir} '
ICONEXT='tiff'
ICON_EXT_TIFF_FALSE='#'
ICON_EXT_TIFF_TRUE=''
ICON_EXT_XPM_FALSE=''
ICON_EXT_XPM_TRUE='#'
INSTALL_DATA='${INSTALL} -m 644'
INSTALL_PROGRAM='${INSTALL}'
INSTALL_SCRIPT='${INSTALL}'
INSTALL_STRIP_PROGRAM='$(install_sh) -c -s'
INTLIBS=''
LD='/usr/bin/ld -m elf_x86_64'
LDFLAGS=''
LIBBSD=''
LIBM='-lm'
LIBOBJS=''
LIBRARY_SEARCH_PATH='-L${libdir} '
LIBS=''
LIBTOOL='$(SHELL) $(top_builddir)/libtool'
LIBXINERAMA='-lXinerama'
LIBXMU='-lXmu'
LIBXRANDR='-lXrandr'
LIPO=''
LN_S='ln -s'
LTLIBOBJS=''
MAKEINFO='${SHELL} /home/xeto/Code/workspace/missing makeinfo'
MANIFEST_TOOL=':'
MKDIR_P='/bin/mkdir -p'
MOFILES=''
NLSDIR='$(prefix)/lib/locale'
NM='/usr/bin/nm -B'
NMEDIT=''
OBJDUMP='objdump'
OBJEXT='o'
OTOOL64=''
OTOOL=''
PACKAGE='Workspace'
PACKAGE_BUGREPORT=''
PACKAGE_NAME='Workspace'
PACKAGE_STRING='Workspace 0.0.8'
PACKAGE_TARNAME='Workspace'
PACKAGE_URL='http://worpskace.juddy.org/'
PACKAGE_VERSION='0.0.8'
PATH_SEPARATOR=':'
PKGCONFIG='pkg-config'
RANLIB='ranlib'
SED='/bin/sed'
SET_MAKE=''
SHELL='/bin/bash'
STRIP='strip'
USE_LCOV_FALSE=''
USE_LCOV_TRUE='#'
UTILMOFILES=''
VERSION='0.0.8'
WINGSMOFILES=''
WINGS_VERSION='2:1:0'
WM_OSDEP_BSD_FALSE=''
WM_OSDEP_BSD_TRUE='#'
WM_OSDEP_DARWIN_FALSE=''
WM_OSDEP_DARWIN_TRUE='#'
WM_OSDEP_GENERIC_FALSE=''
WM_OSDEP_GENERIC_TRUE='#'
WM_OSDEP_LINUX_FALSE='#'
WM_OSDEP_LINUX_TRUE=''
WPMOFILES=''
WRASTER_VERSION='4:1:1'
WUTIL_VERSION='3:0:0'
XCFLAGS=''
XFTCONFIG='pkg-config xft'
XFTFLAGS='-I/usr/include/freetype2  '
XFTLIBS='-lXft  '
XGETTEXT=''
XLFLAGS=''
XLIBS='-lXext -lX11 '
XMKMF=''
X_CFLAGS=''
X_EXTRA_LIBS=''
X_LIBRARY_PATH=''
X_LIBS=''
X_PRE_LIBS=' -lSM -lICE'
ac_ct_AR='ar'
ac_ct_CC='gcc'
ac_ct_DUMPBIN=''
am__EXEEXT_FALSE=''
am__EXEEXT_TRUE='#'
am__fastdepCC_FALSE='#'
am__fastdepCC_TRUE=''
am__include='include'
am__isrc=''
am__leading_dot='.'
am__nodep='_no'
am__quote=''
am__tar='$${TAR-tar} chof - "$$tardir"'
am__untar='$${TAR-tar} xf -'
bindir='${exec_prefix}/bin'
build='x86_64-unknown-linux-gnu'
build_alias=''
build_cpu='x86_64'
build_os='linux-gnu'
build_vendor='unknown'
datadir='${datarootdir}'
datarootdir='${prefix}/share'
docdir='${datarootdir}/doc/${PACKAGE_TARNAME}'
dvidir='${docdir}'
exec_prefix='${prefix}'
host='x86_64-unknown-linux-gnu'
host_alias=''
host_cpu='x86_64'
host_os='linux-gnu'
host_vendor='unknown'
htmldir='${docdir}'
inc_search_path='-I${includedir} '
includedir='${prefix}/include'
infodir='${datarootdir}/info'
install_sh='${SHELL} /home/xeto/Code/workspace/install-sh'
lcov_output_directory=''
lib_search_path='-L${libdir} '
libdir='${exec_prefix}/lib'
libexecdir='${exec_prefix}/libexec'
localedir='${datarootdir}/locale'
localstatedir='${prefix}/var'
mandir='${datarootdir}/man'
menutextdomain=''
mkdir_p='$(MKDIR_P)'
oldincludedir='/usr/include'
pdfdir='${docdir}'
pixmapdir='${datadir}/pixmaps'
prefix='/usr/local'
program_transform_name='s,x,x,'
psdir='${docdir}'
sbindir='${exec_prefix}/sbin'
sharedstatedir='${prefix}/com'
supported_locales='be bg bs ca cs da de el es et fi fr gl hr hu hy it ja ko ms nl no pl pt ro ru sk sv tr zh_CN zh_TW'
sysconfdir='${prefix}/etc'
target_alias=''
wprefs_bindir='${exec_prefix}/bin'
wprefs_datadir='${datarootdir}/WPrefs'

## ----------- ##
## confdefs.h. ##
## ----------- ##

/* confdefs.h */
#define PACKAGE_NAME "Workspace"
#define PACKAGE_TARNAME "Workspace"
#define PACKAGE_VERSION "0.0.8"
#define PACKAGE_STRING "Workspace 0.0.8"
#define PACKAGE_BUGREPORT ""
#define PACKAGE_URL "http://worpskace.juddy.org/"
#define PACKAGE "Workspace"
#define VERSION "0.0.8"
#define STDC_HEADERS 1
#define HAVE_SYS_TYPES_H 1
#define HAVE_SYS_STAT_H 1
#define HAVE_STDLIB_H 1
#define HAVE_STRING_H 1
#define HAVE_MEMORY_H 1
#define HAVE_STRINGS_H 1
#define HAVE_INTTYPES_H 1
#define HAVE_STDINT_H 1
#define HAVE_UNISTD_H 1
#define HAVE_DLFCN_H 1
#define LT_OBJDIR ".libs/"
#define HAVE_VPRINTF 1
#define HAVE_GETHOSTNAME 1
#define HAVE_SELECT 1
#define HAVE_POLL 1
#define HAVE_STRCASECMP 1
#define HAVE_STRNCASECMP 1
#define HAVE_SETSID 1
#define HAVE_MALLINFO 1
#define HAVE_MKSTEMP 1
#define HAVE_SYSCONF 1
#define HAVE_SYS_INOTIFY_H 1
#define HAVE_INOTIFY 1
#define HAVE_SYS_WAIT_H 1
#define TIME_WITH_SYS_TIME 1
#define HAVE_FCNTL_H 1
#define HAVE_LIMITS_H 1
#define HAVE_SYS_IOCTL_H 1
#define HAVE_LIBINTL_H 1
#define HAVE_POLL_H 1
#define HAVE_MALLOC_H 1
#define HAVE_CTYPE_H 1
#define HAVE_STRING_H 1
#define HAVE_STRINGS_H 1
#define HAVE_DECL_SYS_SIGLIST 0
#define HAVE_STDNORETURN 1
#define RETSIGTYPE void
#define HAVE_XINTERNATOMS 1
#define HAVE_XCONVERTCASE 1
#define SHAPE 1
#define HAVE_XRANDR 1
#define XINERAMA 1
#define XSHM 1
#define USE_XPM 1
#define USE_PNG 1
#define USE_JPEG 1
#define USE_GIF 1
#define USE_TIFF 1
#define HAVE_STDLIB_H 1

configure: exit 0

## ---------------------- ##
## Running config.status. ##
## ---------------------- ##

This file was extended by Workspace config.status 0.0.8, which was
generated by GNU Autoconf 2.69.  Invocation command line was

  CONFIG_FILES    = 
  CONFIG_HEADERS  = 
  CONFIG_LINKS    = 
  CONFIG_COMMANDS = 
  $ ./config.status Makefile

on t61p

config.status:1208: creating Makefile

## ---------------------- ##
## Running config.status. ##
## ---------------------- ##

This file was extended by Workspace config.status 0.0.8, which was
generated by GNU Autoconf 2.69.  Invocation command line was

  CONFIG_FILES    = 
  CONFIG_HEADERS  = 
  CONFIG_LINKS    = 
  CONFIG_COMMANDS = 
  $ ./config.status wrlib/Makefile depfiles

on t61p

config.status:1208: creating wrlib/Makefile
config.status:1437: executing depfiles commands

## ---------------------- ##
## Running config.status. ##
## ---------------------- ##

This file was extended by Workspace config.status 0.0.8, which was
generated by GNU Autoconf 2.69.  Invocation command line was

  CONFIG_FILES    = 
  CONFIG_HEADERS  = 
  CONFIG_LINKS    = 
  CONFIG_COMMANDS = 
  $ ./config.status WINGs/Makefile depfiles

on t61p

config.status:1208: creating WINGs/Makefile
config.status:1437: executing depfiles commands

## ---------------------- ##
## Running config.status. ##
## ---------------------- ##

This file was extended by Workspace config.status 0.0.8, which was
generated by GNU Autoconf 2.69.  Invocation command line was

  CONFIG_FILES    = 
  CONFIG_HEADERS  = 
  CONFIG_LINKS    = 
  CONFIG_COMMANDS = 
  $ ./config.status WINGs/WINGs/Makefile

on t61p

config.status:1208: creating WINGs/WINGs/Makefile

## ---------------------- ##
## Running config.status. ##
## ---------------------- ##

This file was extended by Workspace config.status 0.0.8, which was
generated by GNU Autoconf 2.69.  Invocation command line was

  CONFIG_FILES    = 
  CONFIG_HEADERS  = 
  CONFIG_LINKS    = 
  CONFIG_COMMANDS = 
  $ ./config.status WINGs/po/Makefile

on t61p

config.status:1208: creating WINGs/po/Makefile

## ---------------------- ##
## Running config.status. ##
## ---------------------- ##

This file was extended by Workspace config.status 0.0.8, which was
generated by GNU Autoconf 2.69.  Invocation command line was

  CONFIG_FILES    = 
  CONFIG_HEADERS  = 
  CONFIG_LINKS    = 
  CONFIG_COMMANDS = 
  $ ./config.status WINGs/Documentation/Makefile

on t61p

config.status:1208: creating WINGs/Documentation/Makefile

## ---------------------- ##
## Running config.status. ##
## ---------------------- ##

This file was extended by Workspace config.status 0.0.8, which was
generated by GNU Autoconf 2.69.  Invocation command line was

  CONFIG_FILES    = 
  CONFIG_HEADERS  = 
  CONFIG_LINKS    = 
  CONFIG_COMMANDS = 
  $ ./config.status WINGs/Resources/Makefile

on t61p

config.status:1208: creating WINGs/Resources/Makefile

## ---------------------- ##
## Running config.status. ##
## ---------------------- ##

This file was extended by Workspace config.status 0.0.8, which was
generated by GNU Autoconf 2.69.  Invocation command line was

  CONFIG_FILES    = 
  CONFIG_HEADERS  = 
  CONFIG_LINKS    = 
  CONFIG_COMMANDS = 
  $ ./config.status src/Makefile depfiles

on t61p

config.status:1208: creating src/Makefile
config.status:1437: executing depfiles commands

## ---------------------- ##
## Running config.status. ##
## ---------------------- ##

This file was extended by Workspace config.status 0.0.8, which was
generated by GNU Autoconf 2.69.  Invocation command line was

  CONFIG_FILES    = 
  CONFIG_HEADERS  = 
  CONFIG_LINKS    = 
  CONFIG_COMMANDS = 
  $ ./config.status util/Makefile depfiles

on t61p

config.status:1208: creating util/Makefile
config.status:1437: executing depfiles commands

## ---------------------- ##
## Running config.status. ##
## ---------------------- ##

This file was extended by Workspace config.status 0.0.8, which was
generated by GNU Autoconf 2.69.  Invocation command line was

  CONFIG_FILES    = 
  CONFIG_HEADERS  = 
  CONFIG_LINKS    = 
  CONFIG_COMMANDS = 
  $ ./config.status util/po/Makefile

on t61p

config.status:1208: creating util/po/Makefile

## ---------------------- ##
## Running config.status. ##
## ---------------------- ##

This file was extended by Workspace config.status 0.0.8, which was
generated by GNU Autoconf 2.69.  Invocation command line was

  CONFIG_FILES    = 
  CONFIG_HEADERS  = 
  CONFIG_LINKS    = 
  CONFIG_COMMANDS = 
  $ ./config.status po/Makefile

on t61p

config.status:1208: creating po/Makefile

## ---------------------- ##
## Running config.status. ##
## ---------------------- ##

This file was extended by Workspace config.status 0.0.8, which was
generated by GNU Autoconf 2.69.  Invocation command line was

  CONFIG_FILES    = 
  CONFIG_HEADERS  = 
  CONFIG_LINKS    = 
  CONFIG_COMMANDS = 
  $ ./config.status Workspace/Makefile

on t61p

config.status:1208: creating Workspace/Makefile

## ---------------------- ##
## Running config.status. ##
## ---------------------- ##

This file was extended by Workspace config.status 0.0.8, which was
generated by GNU Autoconf 2.69.  Invocation command line was

  CONFIG_FILES    = 
  CONFIG_HEADERS  = 
  CONFIG_LINKS    = 
  CONFIG_COMMANDS = 
  $ ./config.status Workspace/Backgrounds/Makefile

on t61p

config.status:1208: creating Workspace/Backgrounds/Makefile

## ---------------------- ##
## Running config.status. ##
## ---------------------- ##

This file was extended by Workspace config.status 0.0.8, which was
generated by GNU Autoconf 2.69.  Invocation command line was

  CONFIG_FILES    = 
  CONFIG_HEADERS  = 
  CONFIG_LINKS    = 
  CONFIG_COMMANDS = 
  $ ./config.status Workspace/Defaults/Makefile

on t61p

config.status:1208: creating Workspace/Defaults/Makefile

## ---------------------- ##
## Running config.status. ##
## ---------------------- ##

This file was extended by Workspace config.status 0.0.8, which was
generated by GNU Autoconf 2.69.  Invocation command line was

  CONFIG_FILES    = 
  CONFIG_HEADERS  = 
  CONFIG_LINKS    = 
  CONFIG_COMMANDS = 
  $ ./config.status Workspace/Defaults/Makefile

on t61p

config.status:1208: creating Workspace/Defaults/Makefile

## ---------------------- ##
## Running config.status. ##
## ---------------------- ##

This file was extended by Workspace config.status 0.0.8, which was
generated by GNU Autoconf 2.69.  Invocation command line was

  CONFIG_FILES    = 
  CONFIG_HEADERS  = 
  CONFIG_LINKS    = 
  CONFIG_COMMANDS = 
  $ ./config.status Workspace/IconSets/Makefile

on t61p

config.status:1208: creating Workspace/IconSets/Makefile

## ---------------------- ##
## Running config.status. ##
## ---------------------- ##

This file was extended by Workspace config.status 0.0.8, which was
generated by GNU Autoconf 2.69.  Invocation command line was

  CONFIG_FILES    = 
  CONFIG_HEADERS  = 
  CONFIG_LINKS    = 
  CONFIG_COMMANDS = 
  $ ./config.status Workspace/Icons/Makefile

on t61p

config.status:1208: creating Workspace/Icons/Makefile

## ---------------------- ##
## Running config.status. ##
## ---------------------- ##

This file was extended by Workspace config.status 0.0.8, which was
generated by GNU Autoconf 2.69.  Invocation command line was

  CONFIG_FILES    = 
  CONFIG_HEADERS  = 
  CONFIG_LINKS    = 
  CONFIG_COMMANDS = 
  $ ./config.status Workspace/Pixmaps/Makefile

on t61p

config.status:1208: creating Workspace/Pixmaps/Makefile

## ---------------------- ##
## Running config.status. ##
## ---------------------- ##

This file was extended by Workspace config.status 0.0.8, which was
generated by GNU Autoconf 2.69.  Invocation command line was

  CONFIG_FILES    = 
  CONFIG_HEADERS  = 
  CONFIG_LINKS    = 
  CONFIG_COMMANDS = 
  $ ./config.status Workspace/Styles/Makefile

on t61p

config.status:1208: creating Workspace/Styles/Makefile

## ---------------------- ##
## Running config.status. ##
## ---------------------- ##

This file was extended by Workspace config.status 0.0.8, which was
generated by GNU Autoconf 2.69.  Invocation command line was

  CONFIG_FILES    = 
  CONFIG_HEADERS  = 
  CONFIG_LINKS    = 
  CONFIG_COMMANDS = 
  $ ./config.status Workspace/Themes/Makefile

on t61p

config.status:1208: creating Workspace/Themes/Makefile

## ---------------------- ##
## Running config.status. ##
## ---------------------- ##

This file was extended by Workspace config.status 0.0.8, which was
generated by GNU Autoconf 2.69.  Invocation command line was

  CONFIG_FILES    = 
  CONFIG_HEADERS  = 
  CONFIG_LINKS    = 
  CONFIG_COMMANDS = 
  $ ./config.status wmlib/Makefile

on t61p

config.status:1208: creating wmlib/Makefile

## ---------------------- ##
## Running config.status. ##
## ---------------------- ##

This file was extended by Workspace config.status 0.0.8, which was
generated by GNU Autoconf 2.69.  Invocation command line was

  CONFIG_FILES    = 
  CONFIG_HEADERS  = 
  CONFIG_LINKS    = 
  CONFIG_COMMANDS = 
  $ ./config.status WPrefs.app/Makefile depfiles

on t61p

config.status:1208: creating WPrefs.app/Makefile
config.status:1437: executing depfiles commands

## ---------------------- ##
## Running config.status. ##
## ---------------------- ##

This file was extended by Workspace config.status 0.0.8, which was
generated by GNU Autoconf 2.69.  Invocation command line was

  CONFIG_FILES    = 
  CONFIG_HEADERS  = 
  CONFIG_LINKS    = 
  CONFIG_COMMANDS = 
  $ ./config.status WPrefs.app/xpm/Makefile

on t61p

config.status:1208: creating WPrefs.app/xpm/Makefile

## ---------------------- ##
## Running config.status. ##
## ---------------------- ##

This file was extended by Workspace config.status 0.0.8, which was
generated by GNU Autoconf 2.69.  Invocation command line was

  CONFIG_FILES    = 
  CONFIG_HEADERS  = 
  CONFIG_LINKS    = 
  CONFIG_COMMANDS = 
  $ ./config.status WPrefs.app/po/Makefile

on t61p

config.status:1208: creating WPrefs.app/po/Makefile

## ---------------------- ##
## Running config.status. ##
## ---------------------- ##

This file was extended by Workspace config.status 0.0.8, which was
generated by GNU Autoconf 2.69.  Invocation command line was

  CONFIG_FILES    = 
  CONFIG_HEADERS  = 
  CONFIG_LINKS    = 
  CONFIG_COMMANDS = 
  $ ./config.status doc/Makefile

on t61p

config.status:1208: creating doc/Makefile

## ---------------------- ##
## Running config.status. ##
## ---------------------- ##

This file was extended by Workspace config.status 0.0.8, which was
generated by GNU Autoconf 2.69.  Invocation command line was

  CONFIG_FILES    = 
  CONFIG_HEADERS  = 
  CONFIG_LINKS    = 
  CONFIG_COMMANDS = 
  $ ./config.status doc/sk/Makefile

on t61p

config.status:1208: creating doc/sk/Makefile

## ---------------------- ##
## Running config.status. ##
## ---------------------- ##

This file was extended by Workspace config.status 0.0.8, which was
generated by GNU Autoconf 2.69.  Invocation command line was

  CONFIG_FILES    = 
  CONFIG_HEADERS  = 
  CONFIG_LINKS    = 
  CONFIG_COMMANDS = 
  $ ./config.status doc/cs/Makefile

on t61p

config.status:1208: creating doc/cs/Makefile

## ---------------------- ##
## Running config.status. ##
## ---------------------- ##

This file was extended by Workspace config.status 0.0.8, which was
generated by GNU Autoconf 2.69.  Invocation command line was

  CONFIG_FILES    = 
  CONFIG_HEADERS  = 
  CONFIG_LINKS    = 
  CONFIG_COMMANDS = 
  $ ./config.status doc/ru/Makefile

on t61p

config.status:1208: creating doc/ru/Makefile

## ---------------------- ##
## Running config.status. ##
## ---------------------- ##

This file was extended by Workspace config.status 0.0.8, which was
generated by GNU Autoconf 2.69.  Invocation command line was

  CONFIG_FILES    = 
  CONFIG_HEADERS  = 
  CONFIG_LINKS    = 
  CONFIG_COMMANDS = 
  $ ./config.status test/Makefile

on t61p

config.status:1208: creating test/Makefile
